0.065687247 -0.062017798 0.55944312
0.075396426 -0.062825635 0.55933046
0.082516745 -0.062761046 0.55973548
0.048863299 -0.051069848 0.55939305
0.055185355 -0.054262687 0.55900431
0.065063529 -0.05512448 0.55814004
0.074965388 -0.054612249 0.55793053
0.084413953 -0.055280127 0.55858439
0.091697969 -0.05261223 0.55911833
0.047092091 -0.044603992 0.55908126
0.054779965 -0.044403672 0.5574618
0.065365173 -0.045349725 0.55631119
0.075050265 -0.045266349 0.55616963
0.084641621 -0.045385353 0.55670625
0.094586335 -0.044601653 0.55872321
0.10094599 -0.042915799 0.55964303
0.046429288 -0.034988265 0.55880368
0.05523568 -0.035115737 0.55649596
0.064563558 -0.035260644 0.55555212
0.075523093 -0.034292802 0.55547589
0.084481701 -0.035768032 0.55601245
0.094713114 -0.03513011 0.55819213
0.10181199 -0.035140939 0.55957198
0.046341218 -0.024524238 0.55905002
0.054789469 -0.024361556 0.5569309
0.065367378 -0.024388645 0.55590278
0.07511811 -0.024823522 0.55552006
0.085338771 -0.025072925 0.5564999
0.094687939 -0.024472773 0.55817455
0.1016205 -0.027035948 0.55969924
0.047991682 -0.014628719 0.55964077
0.055294868 -0.015946494 0.55799454
0.064292118 -0.014898372 0.55726749
0.075022399 -0.014850458 0.55656576
0.084932648 -0.014808203 0.55774188
0.094362646 -0.015941281 0.55905032
0.055639792 -0.0071650469 0.55930811
0.064830028 -0.0063763941 0.55888629
0.075667143 -0.0062341727 0.55863756
0.084068008 -0.0071393256 0.55918634
0.092266202 -0.0084615201 0.55992401
0.047993649 -0.080722302 0.5692485
0.056359846 -0.08276663 0.56870055
0.065559536 -0.083205625 0.56784183
0.074347258 -0.083195962 0.56747574
0.084158882 -0.082796834 0.56772244
0.09231586 -0.082747169 0.5689463
0.037261099 -0.073438682 0.56906718
0.045357548 -0.074736401 0.56729627
0.055117272 -0.075117305 0.56538844
0.065044716 -0.074690901 0.56411368
0.074743778 -0.075099438 0.56375438
0.084970757 -0.074670933 0.56444842
0.094766349 -0.074431196 0.56589562
0.10383783 -0.074037768 0.56820828
0.110341 -0.070980199 0.56920302
0.028453799 -0.062547117 0.56898534
0.034834802 -0.065097377 0.56710017
0.045300242 -0.065037191 0.56400621
0.054143161 -0.065365359 0.56209397
0.064248331 -0.065171167 0.56071311
0.075501248 -0.066736087 0.56128061
0.085060023 -0.065762207 0.56129259
0.094616219 -0.064884402 0.56315511
0.10486115 -0.065405466 0.56579965
0.1136088 -0.064369611 0.56869763
0.025393268 -0.054256354 0.5680387
0.034656074 -0.054723423 0.56448913
0.04470516 -0.055125583 0.56154299
0.051535636 -0.057443701 0.56071651
0.085095041 -0.0562937 0.56000102
0.096134327 -0.055546436 0.56141132
0.1053305 -0.055297244 0.56346738
0.11475261 -0.055494253 0.56696808
0.12127671 -0.0541692 0.56918842
0.019414201 -0.044105534 0.56908667
0.024849111 -0.045151841 0.56671554
0.03505341 -0.045166913 0.56263
0.044237025 -0.046529014 0.56056464
0.0510571 -0.048111498 0.56000149
0.097686298 -0.048002701 0.56003702
0.10581921 -0.044864744 0.5614872
0.114898 -0.044251926 0.56481719
0.12317559 -0.04429331 0.56831789
0.018137613 -0.034359112 0.56920898
0.025521975 -0.035257276 0.56595033
0.034966003 -0.03488386 0.56200862
0.04328125 -0.035028212 0.56020635
0.10600521 -0.035318248 0.56143868
0.11480857 -0.03535055 0.56447625
0.12413108 -0.034765128 0.56846511
0.018649038 -0.025091818 0.56914693
0.025215643 -0.024713473 0.56620485
0.035353534 -0.025190298 0.56215215
0.043729626 -0.024343999 0.5603798
0.10545523 -0.024226082 0.56129563
0.11471228 -0.025012655 0.56440639
0.12372601 -0.025269182 0.56849045
0.018697601 -0.0174278 0.56970298
0.024706811 -0.015200237 0.56715375
0.035182279 -0.015124743 0.56294262
0.0437955 -0.014813862 0.56089836
0.051057048 -0.0127643 0.56000054
0.096182026 -0.012807515 0.56081951
0.10509558 -0.014999229 0.56248695
0.11438819 -0.014667255 0.56552869
0.12231434 -0.015383809 0.56883293
0.026266733 -0.0056420946 0.56863117
0.034981012 -0.005169197 0.56537455
0.044621512 -0.0046486529 0.56249386
0.053188041 -0.0028567263 0.5608902
0.065278515 -0.00073860708 0.56031126
0.074739277 -0.0038933393 0.5602529
0.085507073 -0.0023745801 0.56090128
0.094836339 -0.0044191442 0.56192565
0.10488721 -0.0050058742 0.56461799
0.11423016 -0.0057536694 0.56749034
0.120512 -0.0092736445 0.56942153
0.0285726 0.0023612501 0.569947
0.03532768 0.0041770516 0.56788725
0.045417059 0.0050184587 0.56552297
0.05459566 0.0054015284 0.56363487
0.065162435 0.0055374159 0.56258643
0.075157017 0.0054391413 0.56215209
0.084512651 0.0048320903 0.5628829
0.095296279 0.005269167 0.56499273
0.104837 0.0047576856 0.56750655
0.112647 0.0013445786 0.56909597
0.037549365 0.011080167 0.56951207
0.045015965 0.012892192 0.56842935
0.05455048 0.014553555 0.56755191
0.064756878 0.015148193 0.56677002
0.074780248 0.015067073 0.56638628
0.084971875 0.015563712 0.56739205
0.094934247 0.013649237 0.5679999
0.1026185 0.011783475 0.56898004
0.064321704 0.020692034 0.56972235
0.074016504 0.021065075 0.56950152
0.0076463679 0.23808725 0.56896305
0.014763288 0.23782912 0.56793714
0.026454411 0.23597823 0.56696844
0.034160115 0.23569252 0.56721711
0.04528603 0.23667787 0.56805307
0.056131613 0.236387 0.56763476
0.064841785 0.23533264 0.56603992
0.074887834 0.23512493 0.56526279
0.085273042 0.23516703 0.56532037
0.095354587 0.23515309 0.56451392
0.1054762 0.2352117 0.5648874
0.1141194 0.2354403 0.56548256
0.12490258 0.23563772 0.56648058
0.13419567 0.23730333 0.56865817
0.135506 0.24063 0.56839401
0.056859899 -0.1004255 0.57941151
0.064623855 -0.1013706 0.57897681
0.074434936 -0.10131443 0.57845443
0.084755652 -0.10086968 0.57902968
0.038322061 -0.091694102 0.57859915
0.045348398 -0.094095446 0.57786554
0.055376559 -0.095302045 0.57651645
0.064883694 -0.094430484 0.57444549
0.075244308 -0.095347658 0.57477421
0.084758423 -0.094503336 0.57500869
0.094758853 -0.094332814 0.57667863
0.10368022 -0.092875667 0.57842183
0.026389111 -0.083040103 0.57825416
0.035160933 -0.084860787 0.57542336
0.045178428 -0.08585351 0.57300621
0.054222926 -0.087553591 0.57227141
0.064556353 -0.088040419 0.57085663
0.074434437 -0.088231064 0.57065713
0.085790612 -0.088283949 0.57125038
0.095901415 -0.08636912 0.57210058
0.10497856 -0.085191861 0.57411695
0.11447337 -0.084335528 0.57749939
0.12094767 -0.081944101 0.57916802
0.01755828 -0.073854849 0.57831335
0.02496024 -0.075084873 0.57505453
0.033565447 -0.075747944 0.57146853
0.040690299 -0.079695098 0.57067603
0.10638511 -0.07820031 0.57090801
0.11508556 -0.075113922 0.57320237
0.12396647 -0.07432811 0.57702243
0.13037901 -0.072394602 0.57987398
0.0092426063 -0.062046599 0.57902032
0.015053054 -0.064519458 0.57644248
0.024139255 -0.065792188 0.57191396
0.11670887 -0.067126073 0.5710575
0.1248152 -0.06497135 0.57398385
0.13284169 -0.064046979 0.57862025
0.0071464223 -0.053877089 0.57808894
0.015019403 -0.054837693 0.57344866
0.021768533 -0.057487432 0.57083482
0.12627529 -0.055638641 0.5721916
0.13447589 -0.054809656 0.5773375
0.0068726372 -0.044569761 0.57685983
0.014748094 -0.045329444 0.57205176
0.127358 -0.04553299 0.57066375
0.13468029 -0.044590436 0.57535076
0.14075175 -0.045920447 0.57973146
0.0057605696 -0.035269469 0.57666332
0.013247463 -0.036035657 0.57220614
0.12850501 -0.033941399 0.57097328
0.13471939 -0.035501104 0.5749023
0.1410245 -0.034328949 0.57902622
0.0058523887 -0.02500359 0.57684577
0.013551765 -0.024881892 0.57180279
0.12847941 -0.024829976 0.57136726
0.13531944 -0.025222886 0.57548404
0.14099251 -0.023659633 0.5792169
0.0072676563 -0.015304645 0.57716006
0.014749264 -0.014184223 0.57261634
0.12718301 -0.013941508 0.57188135
0.13550112 -0.014978019 0.5768047
0.0083904574 -0.0065282537 0.57855612
0.015155715 -0.0048899916 0.57472348
0.02258257 -0.0043428685 0.57109094
0.116978 -0.00078208063 0.57031065
0.12461003 -0.004592305 0.57289708
0.13342108 -0.0061240429 0.57757944
0.0099256104 0.00107063 0.57976401
0.016131055 0.0042959666 0.57719034
0.024735386 0.0054363175 0.57301623
0.031712078 0.0082276631 0.57070702
0.10798567 0.0081922933 0.5701617
0.11574386 0.00578833 0.57198817
0.12430348 0.0048159799 0.57593584
0.131182 0.0031897901 0.57927954
0.018406367 0.011661933 0.57910234
0.025544172 0.01419418 0.57676828
0.035022952 0.015265035 0.57314551
0.044745754 0.016971681 0.57146126
0.053481251 0.018828001 0.570526
0.067959204 0.019988 0.57000101
0.095412686 0.017957643 0.57093364
0.10570411 0.015959695 0.57235324
0.11452413 0.01545659 0.57563937
0.12244633 0.013278199 0.5783186
0.028187599 0.02048165 0.57957304
0.035752382 0.023303906 0.57781237
0.045486309 0.024795255 0.57544607
0.055326607 0.024740368 0.5731765
0.064885102 0.025767038 0.57265794
0.074705712 0.026114766 0.57252038
0.084957361 0.025053738 0.57284117
0.095405668 0.025255589 0.57522804
0.10414022 0.025121696 0.57754374
0.1124026 0.021806741 0.57878178
0.047114726 0.030725924 0.57870471
0.056221455 0.032680321 0.57819325
0.065426014 0.032791693 0.57707882
0.075096555 0.033956591 0.57734197
0.085496567 0.033428334 0.57794857
0.093476579 0.031891979 0.57869935
-0.27118498 0.056952499 0.5789755
-0.26692751 0.057896599 0.57842553
-0.27093399 0.061930101 0.57844597
-0.26644999 0.061817199 0.577398
0.144188 0.22993401 0.57938403
-0.01144022 0.23678739 0.5791046
-0.0051248199 0.23592263 0.57651907
0.0044770502 0.23538104 0.57561874
0.015067635 0.23439404 0.57567561
0.024901744 0.23413569 0.57512146
0.034854848 0.23352562 0.57603335
0.044859849 0.23444584 0.57457787
0.054636382 0.23389433 0.57481748
0.064584546 0.23295566 0.57536972
0.075171933 0.23265544 0.57506144
0.08552099 0.23257229 0.5754565
0.095548943 0.23227331 0.57534796
0.10429899 0.23234917 0.57531273
0.11486593 0.23241927 0.57401967
0.12475161 0.23157845 0.57489461
0.13532984 0.23300804 0.57329285
0.1451897 0.23342139 0.57500052
0.15400401 0.23381345 0.57779598
-0.011407 0.240868 0.578722
-0.0068186177 0.24174161 0.575809
0.00273414 0.241512 0.57059503
0.1447258 0.2421716 0.57463944
0.15334217 0.24327767 0.57783264
0.0486812 -0.110308 0.58912998
0.0551106 -0.11124867 0.58816999
0.06497822 -0.11240331 0.58780736
0.075050741 -0.11202692 0.58697617
0.085209414 -0.11176213 0.58729589
0.092929937 -0.11166999 0.58886766
0.028041899 -0.10129949 0.58984202
0.036208745 -0.10391692 0.58813673
0.044974931 -0.10497952 0.58563405
0.05535084 -0.10494687 0.58315092
0.065394402 -0.10674576 0.58288586
0.075262152 -0.10612643 0.58195591
0.085296258 -0.10602973 0.582757
0.094984278 -0.10548653 0.58450276
0.10433776 -0.104072 0.58633149
0.11342259 -0.1022534 0.58888578
0.01701265 -0.091345802 0.58892149
0.025543049 -0.094218314 0.58609134
0.034717694 -0.095960021 0.58306628
0.042406045 -0.097027443 0.58127755
0.052604701 -0.098385997 0.58000398
0.097361803 -0.098498367 0.58106261
0.10555466 -0.096796222 0.58143044
0.11459516 -0.095540538 0.58476818
0.12341657 -0.092634216 0.58779067
0.008014163 -0.082152903 0.58916265
0.015484864 -0.084081709 0.58481371
0.023585401 -0.087263286 0.5822621
0.11749639 -0.088301882 0.58149558
0.12563127 -0.085064098 0.58376336
0.13288912 -0.083588198 0.58742678
0.0061974181 -0.074572496 0.586577
0.013000144 -0.076169528 0.58209282
0.1264585 -0.078684047 0.5809775
0.13453971 -0.075533487 0.58415937
0.14207084 -0.072286949 0.58844286
-0.0015299896 -0.064690888 0.58889633
0.0042639826 -0.065066993 0.58414799
0.011827501 -0.069708303 0.58061302
0.13739461 -0.065595046 0.58224297
0.1434235 -0.064711072 0.58676863
-0.003149183 -0.054569788 0.58714443
0.0029058519 -0.056452468 0.58232135
0.13849699 -0.055336498 0.58025503
0.14464113 -0.055289343 0.58470184
0.150316 -0.0572895 0.58988398
-0.0043916232 -0.044803299 0.58606791
0.0014756799 -0.045567613 0.58137226
0.14592005 -0.0453717 0.58364999
0.15153013 -0.044178315 0.58854377
-0.004777112 -0.035142265 0.58568728
0.0019458222 -0.035155784 0.58095735
0.14602385 -0.035152879 0.58312041
0.15176499 -0.034620136 0.58813787
-0.0043170354 -0.025334008 0.58548236
0.0012568125 -0.023976818 0.58074737
0.1464863 -0.024879795 0.58381557
0.1520945 -0.025500134 0.58868998
-0.0038272853 -0.01493628 0.58670312
0.0018591575 -0.014695438 0.58177429
0.138401 -0.0142264 0.58028001
0.1450187 -0.014529162 0.5842616
0.15053651 -0.01566845 0.58866954
-0.0023353421 -0.0052808146 0.58774328
0.0037980787 -0.0051989597 0.58270776
0.13773428 -0.0033649064 0.58132398
0.14438421 -0.0059500323 0.58601969
-0.00058844866 0.002413172 0.58898598
0.0051969951 0.0049634119 0.58524758
0.012018399 0.0068214731 0.58066571
0.129877 0.0099848099 0.58133698
0.13527244 0.0052351197 0.58279085
0.14199774 0.0038927994 0.58757931
0.0076716635 0.013910066 0.58774143
0.014095826 0.01515771 0.58421177
0.020984875 0.017439 0.58165479
0.12628593 0.016035791 0.58205438
0.13478312 0.013863592 0.58629161
0.141058 0.0111361 0.58978599
0.017135419 0.023761678 0.587789
0.02462676 0.025150781 0.58426982
0.033078644 0.027311444 0.58153301
0.040791899 0.029546401 0.58081198
0.10633967 0.029076368 0.58079666
0.11574205 0.026102863 0.5832243
0.1249838 0.023749223 0.58648086
0.132277 0.021804549 0.58932549
0.027149301 0.032769453 0.58833677
0.035329495 0.034351692 0.58568937
0.044579696 0.035551138 0.58293909
0.054075733 0.037091732 0.581824
0.064032443 0.038197961 0.5813967
0.073596418 0.039076414 0.58131737
0.08502195 0.038754188 0.58164895
0.095138073 0.036438953 0.58245873
0.10462246 0.034975324 0.5842433
0.11413173 0.033235677 0.58749741
0.038843799 0.041169699 0.58963102
0.045028139 0.04189888 0.58774889
0.054948952 0.043574929 0.58689761
0.064936124 0.044225544 0.58630484
0.075290591 0.044505581 0.58593792
0.084170409 0.044617239 0.5869022
0.095145665 0.042565405 0.58752936
0.10408776 0.041309573 0.58892447
-0.27592701 0.057104051 0.58052552
-0.276393 0.062246401 0.58150202
0.0598552 0.22971299 0.58893102
0.063063703 0.22992601 0.58885902
0.075991325 0.22955634 0.58684766
0.084159799 0.22943234 0.58824331
0.09525387 0.22932 0.58861601
0.1049574 0.22943261 0.58640373
0.11511067 0.2294625 0.58580333
0.12422656 0.22932471 0.58582371
0.13357738 0.22922811 0.585392
0.14416811 0.22947049 0.58428663
0.15505765 0.22916752 0.58476245
0.16300066 0.22916932 0.58670998
-0.023178631 0.23597032 0.58662003
-0.015301217 0.23484789 0.58430493
-0.0056221234 0.232501 0.58641124
0.0045035193 0.23190577 0.58537233
0.014484187 0.23166363 0.58583766
0.025500651 0.23154593 0.58501029
0.035853725 0.23193172 0.58500987
0.043974396 0.23136692 0.58500999
0.054889485 0.2312209 0.58531862
0.064885326 0.23103961 0.58492035
0.075089261 0.23156382 0.58442664
0.085104838 0.23162974 0.58509898
0.094546877 0.23163375 0.585365
0.10354625 0.23131199 0.58395576
0.113798 0.23115925 0.58232653
0.123246 0.23169801 0.58331597
0.13891201 0.230024 0.58011103
0.145649 0.23180801 0.58500099
0.15853482 0.23539551 0.58119196
0.16438578 0.23389128 0.58457464
0.17113575 0.233845 0.58914429
0.180906 0.239362 0.58821303
-0.02386854 0.24366751 0.58669871
-0.015333228 0.24272344 0.58162129
0.15805399 0.24298951 0.582748
0.1654591 0.24280569 0.58568895
0.170747 0.240733 0.58992898
0.054361701 -0.121132 0.59899342
0.066094615 -0.12147475 0.59728402
0.076222979 -0.12171967 0.59685785
0.086083382 -0.1215564 0.59752619
0.094166048 -0.12089325 0.59887803
0.028748631 -0.11182367 0.59853202
0.035624396 -0.11281859 0.5961886
0.044960786 -0.114524 0.59433848
0.053983361 -0.11656816 0.59393442
0.063946404 -0.1167682 0.59224141
0.075210705 -0.1170613 0.59196031
0.085001111 -0.11674545 0.59214216
0.095826335 -0.11527538 0.59320194
0.104431 -0.11431754 0.59533131
0.11249439 -0.1130134 0.59795058
0.016614679 -0.10149701 0.597372
0.024756199 -0.10440753 0.59446192
0.033368018 -0.10711116 0.592004
0.1076875 -0.108108 0.59080201
0.11455041 -0.10713041 0.59354371
0.12295037 -0.10407665 0.59597594
0.1314265 -0.1007775 0.59878898
0.0073590069 -0.093103297 0.59796548
0.014157325 -0.094991744 0.59399593
0.022332333 -0.09908513 0.59156203
0.12594981 -0.095864534 0.59149408
0.13438174 -0.093749821 0.59580392
-0.0019444246 -0.083044596 0.59813398
0.0043773786 -0.085194655 0.59412301
0.0103583 -0.0890847 0.59214902
0.13666429 -0.086074345 0.59195143
0.1438086 -0.084235631 0.59676969
-0.0045473743 -0.074165136 0.59567297
0.0020047217 -0.0769976 0.59121615
0.14526032 -0.076422095 0.5931415
0.15191559 -0.073139839 0.59733999
-0.01098698 -0.064723156 0.59824198
-0.0059469799 -0.06552507 0.59298581
0.14866368 -0.06557145 0.59119487
0.15410289 -0.064702407 0.59619623
-0.012891554 -0.054569408 0.59663808
-0.0079524601 -0.054839361 0.59144062
0.155112 -0.055301443 0.59425068
0.16013899 -0.050141402 0.59787601
-0.013965965 -0.044839956 0.59556806
-0.0095192073 -0.046585161 0.59092468
0.15684308 -0.04442931 0.59346247
0.161754 -0.045469176 0.59911394
-0.014155944 -0.035258494 0.59538937
-0.0098296897 -0.03425695 0.59046102
0.15729189 -0.034863278 0.5936451
0.16162384 -0.036372233 0.59845906
-0.01367561 -0.025111495 0.5952037
-0.0087695448 -0.022295401 0.59015048
0.15654011 -0.023959799 0.59283036
0.16147099 -0.023224266 0.5986197
-0.013081222 -0.015359158 0.59603983
-0.0081806183 -0.012837981 0.5911296
0.15568432 -0.015077799 0.59369701
0.16085401 -0.016909249 0.59938377
-0.0119021 -0.0059579066 0.59761947
-0.007220909 -0.0043879789 0.59271187
0.14924401 -0.0011299934 0.59163404
0.15407833 -0.0049289493 0.59525746
-0.0113211 0.000427005 0.59936601
-0.0050231372 0.0050431774 0.59441
0.000214409 0.00992167 0.59145498
0.1472884 0.0057613077 0.59270561
0.15232299 0.0040033967 0.59676903
-0.0027243409 0.013180926 0.59677941
0.0033952596 0.01628525 0.59342927
0.0100484 0.0195137 0.59039998
0.13904233 0.0168614 0.5911777
0.14424191 0.015077754 0.5947926
0.150637 0.0107294 0.59847802
0.0062695937 0.024119645 0.59659737
0.013537623 0.026151657 0.59231132
0.12810101 0.028129967 0.59180349
0.1353642 0.025770346 0.59504741
0.142628 0.0217191 0.59796542
0.015334429 0.033846837 0.59681094
0.023759134 0.036638189 0.59323156
0.0326887 0.0389372 0.59048849
0.11653066 0.037413251 0.59169251
0.12460642 0.035116047 0.59473914
0.13227634 0.032900166 0.59888601
0.025572712 0.04278871 0.5975914
0.035260558 0.044951178 0.59488392
0.044923674 0.046742085 0.59250546
0.053949147 0.048517033 0.59217566
0.064636953 0.048560973 0.59085447
0.075585239 0.049558032 0.59231836
0.085187301 0.048431501 0.59112424
0.094536297 0.04755294 0.59195113
0.10533906 0.046312302 0.59424591
0.11385046 0.043652322 0.5957762
0.1211815 0.0412472 0.59765399
0.044853061 0.051157981 0.59849399
0.055460848 0.051997468 0.59638745
0.06483499 0.052855942 0.59564924
0.07475663 0.053590141 0.59573662
0.08510612 0.052729368 0.59576637
0.09491501 0.052305702 0.59787053
0.101586 0.0510596 0.59805453
-0.01545415 0.2298525 0.59739351
-0.0053861821 0.2296674 0.59704924
0.0038784761 0.2296235 0.59705049
0.014851415 0.2294127 0.5970149
0.02453387 0.22923872 0.59655482
0.03535239 0.22932243 0.59682161
0.045089319 0.22909488 0.59673733
0.054596212 0.2291071 0.59568143
0.064754739 0.2288433 0.59679687
0.074722618 0.22815296 0.59568363
0.084467262 0.22826818 0.59588128
0.095130213 0.22854312 0.59557778
0.104584 0.22835687 0.59491378
0.11463784 0.22848938 0.59524578
0.12485417 0.22832435 0.59554011
0.13472773 0.22811383 0.59597415
0.14491393 0.22838971 0.5955981
0.1550459 0.22834182 0.59536535
0.16529399 0.22817837 0.59460098
0.17440157 0.22829601 0.59666008
0.180976 0.22825 0.59996098
-0.034426719 0.23390934 0.59693235
-0.025378337 0.23189613 0.59365314
-0.014667481 0.23152934 0.5926916
-0.0045342376 0.23060949 0.59162837
0.0053688637 0.23032434 0.59265488
0.015399925 0.23051225 0.59222507
0.026240891 0.23201725 0.59102637
0.035675872 0.23115349 0.59145749
0.0452361 0.230517 0.5923025
0.050210401 0.230294 0.59281498
0.067886151 0.23009101 0.59212804
0.082897499 0.230041 0.59100002
0.17502826 0.23382539 0.59246886
0.18180649 0.23377532 0.59807467
-0.042526051 0.24947 0.59799755
-0.034767281 0.24402305 0.59576762
-0.029026533 0.24269533 0.59190035
0.17579406 0.24227975 0.59333628
0.184083 0.241523 0.59898806
0.0558099 -0.140103 0.607894
0.051313601 -0.13809399 0.60122401
0.0666091 -0.130141 0.609124
0.075781204 -0.13092767 0.60931832
0.083303548 -0.13050351 0.60901153
0.094373152 -0.13336149 0.6084075
0.107411 -0.13148101 0.60490602
0.0280782 -0.120528 0.60979402
0.036231935 -0.122201 0.60718882
0.044987995 -0.12326833 0.60475707
0.054455556 -0.12558791 0.60503423
0.065701276 -0.12658474 0.60453343
0.075290382 -0.12641659 0.60357171
0.084620185 -0.12646033 0.60485983
0.095549457 -0.12575908 0.60575503
0.10486 -0.12319311 0.60562795
0.1130686 -0.1219884 0.6078862
0.01664206 -0.11189799 0.6077652
0.024565559 -0.1146772 0.60478961
0.034290738 -0.11772724 0.60259426
0.041068699 -0.11943 0.60143203
0.1067 -0.11915201 0.60156339
0.116199 -0.1159053 0.60333389
0.12468955 -0.11432701 0.60709369
0.0066278055 -0.10348071 0.60785419
0.013935201 -0.1059916 0.60378677
0.021510201 -0.109486 0.60125899
0.12685442 -0.10793415 0.60201645
0.13467312 -0.10482775 0.60505259
0.140036 -0.102938 0.60901302
-0.017961901 -0.095171802 0.60476297
-0.0028466575 -0.091896974 0.60638934
0.0036106657 -0.096020207 0.60375834
0.010249 -0.099579997 0.60085601
0.13622765 -0.098261632 0.60084897
0.14336933 -0.094820254 0.60520512
0.150786 -0.092664398 0.60988402
-0.0106935 -0.081464797 0.60795498
-0.0063482006 -0.084943712 0.60463768
0.14795372 -0.08707229 0.60300648
0.15424237 -0.084190808 0.60624623
-0.012953854 -0.07317175 0.6054213
-0.0087398533 -0.076722093 0.60171026
0.1566674 -0.074697159 0.60352331
0.16186966 -0.072350532 0.60763365
-0.015799541 -0.065068044 0.60509408
0.15827467 -0.066809066 0.60156435
0.16406666 -0.063282147 0.60669178
-0.021471217 -0.054963399 0.60824519
-0.017629379 -0.055641919 0.60320556
0.16410831 -0.054481678 0.60394585
-0.022194881 -0.045018785 0.60715717
-0.019033415 -0.043906599 0.60205358
0.1667899 -0.045586064 0.60475612
-0.022379017 -0.03482518 0.60647726
-0.01915135 -0.034784049 0.601457
0.16656689 -0.034846798 0.60393536
0.17140201 -0.03349575 0.60921597
-0.022500968 -0.02523371 0.60678399
-0.019101622 -0.024320699 0.60185659
0.16514771 -0.025454119 0.60284477
0.1703805 -0.023845449 0.60877502
-0.021609697 -0.015822019 0.60766399
-0.01801352 -0.015252951 0.60273552
0.16501142 -0.015025341 0.60441685
-0.020878 -0.0061710002 0.60955399
-0.016863493 -0.0054392777 0.60440952
0.15897 -0.0017396 0.60148096
0.16379118 -0.0054578893 0.6059193
-0.014242489 0.0047007008 0.60560656
-0.00882445 0.0088856798 0.60046601
0.15599844 0.0060544284 0.6016463
0.16185471 0.0033664329 0.60685825
-0.01127285 0.0135004 0.60728401
-0.0067630848 0.01628634 0.6034677
0.148764 0.018235501 0.600546
0.15445398 0.014176229 0.60447305
0.16035201 0.0100598 0.60877198
-0.0033744834 0.024598802 0.60609353
0.0019152361 0.026632443 0.60264289
0.1451422 0.025597751 0.60367519
0.1516155 0.02143215 0.60651147
-0.00025838599 0.031902101 0.60874301
0.0055822432 0.033836409 0.60536295
0.013033086 0.037919641 0.60248578
0.12940501 0.037693799 0.60023201
0.13483565 0.036218446 0.60360742
0.14160949 0.032574736 0.60653883
0.0091459397 0.040425099 0.60806698
0.01633285 0.043939311 0.60542017
0.024148399 0.047293387 0.60352772
0.031444751 0.048602298 0.600595
0.11686243 0.048304498 0.6020636
0.12551582 0.044571463 0.60388672
0.13268149 0.042626124 0.60721546
0.0265196 0.051381201 0.60785526
0.036011819 0.053409811 0.60532159
0.045023404 0.056394149 0.6053285
0.055154312 0.056958195 0.60258865
0.065192252 0.058366101 0.60251063
0.075096071 0.058466945 0.60205269
0.085471191 0.0578967 0.6025148
0.09557388 0.056460857 0.60343134
0.1045756 0.05456971 0.60442144
0.11483338 0.052016802 0.6058566
0.054375257 0.061426826 0.60831654
0.065614022 0.061919075 0.6067518
0.074456349 0.061940055 0.60647643
0.085322522 0.062011667 0.60773635
0.092820272 0.061007153 0.60801303
-0.042488001 0.229261 0.608338
-0.034678463 0.22918129 0.60568404
-0.024317754 0.22919901 0.60367501
-0.014212699 0.22897926 0.60466868
-0.0045493734 0.22860533 0.60423863
0.0052898731 0.22846802 0.60431254
0.015731623 0.22815341 0.60399723
0.024798358 0.22765775 0.60508138
0.034998644 0.22798075 0.60489303
0.044747677 0.2274849 0.60469842
0.05527208 0.22729617 0.6051479
0.065449283 0.22623754 0.60528398
0.07563176 0.22434258 0.60344464
0.084037624 0.22629699 0.60523921
0.094801046 0.22658682 0.6051321
0.10503759 0.2271845 0.60612631
0.11506128 0.22724818 0.60499364
0.12594116 0.22734427 0.60638338
0.13569312 0.22729534 0.60645688
0.14493421 0.22730672 0.60477185
0.15531835 0.22711058 0.60546213
0.16477041 0.22666718 0.60528022
0.17436889 0.22680025 0.60465449
0.18435098 0.22734417 0.60582435
0.190828 0.2283715 0.60868454
-0.04414266 0.23500891 0.60541868
-0.038324676 0.23278801 0.60186863
-0.0063330098 0.23010001 0.60200101
0.18665951 0.23550244 0.6030466
0.19194025 0.23680025 0.60788697
-0.051697649 0.249228 0.60714751
-0.044119928 0.243994 0.60493422
-0.0399855 0.246306 0.60190499
0.18694779 0.24094839 0.60346955
0.191329 0.24221601 0.60875201
-0.048676349 0.25153449 0.60731697
0.046989053 -0.1414495 0.61713398
0.05205955 -0.14201099 0.61288595
0.076270849 -0.1433095 0.61427248
0.082985297 -0.140074 0.61999601
0.0176546 -0.131667 0.61887699
0.0292479 -0.13483401 0.61139899
0.037314501 -0.13593499 0.61824799
0.045845866 -0.13371523 0.61587572
0.054227695 -0.1332698 0.61548781
0.065078028 -0.13346992 0.6145764
0.073707804 -0.13310437 0.6136049
0.086555131 -0.13400473 0.61490065
0.093448319 -0.13374984 0.6151517
0.115373 -0.13095701 0.61804003
0.018993801 -0.121313 0.61786401
0.025693286 -0.12314115 0.61538798
0.03446003 -0.12631233 0.61413336
0.044197422 -0.12865485 0.61265212
0.055868197 -0.129033 0.61053467
0.093513593 -0.12828119 0.61144221
0.10677429 -0.1273407 0.61294657
0.11437077 -0.12393022 0.61298597
0.12414285 -0.12216343 0.6153459
0.008741363 -0.11253367 0.61581802
0.014571759 -0.11593624 0.61449367
0.0212503 -0.118688 0.61251599
0.12675132 -0.11624234 0.61304551
0.13504627 -0.11389574 0.61593616
0.14356001 -0.110477 0.61811203
-0.001754193 -0.103516 0.61738569
0.0042849928 -0.10681491 0.61400837
0.13779125 -0.1080415 0.61434579
0.14516024 -0.10433087 0.61459756
-0.0106678 -0.092827499 0.61770201
-0.0054531777 -0.096293554 0.61425912
0.14764649 -0.098209575 0.61255503
0.15307914 -0.095828928 0.61498821
0.160248 -0.092266299 0.61909699
-0.014497607 -0.084023878 0.61487025
-0.0088557098 -0.089283198 0.611215
0.157868 -0.08510527 0.61126965
0.162478 -0.082136296 0.61371201
-0.02162708 -0.07461866 0.61813557
-0.01771611 -0.07533934 0.61313415
0.16421519 -0.075876333 0.61231065
0.1713825 -0.071781501 0.61733353
-0.022948069 -0.064883128 0.61495054
-0.0184716 -0.0695052 0.610811
0.16708601 -0.066542841 0.61198145
0.17213166 -0.064055227 0.61607385
-0.026246505 -0.054852247 0.61521149
0.17284486 -0.054699201 0.61356783
-0.030621501 -0.043585099 0.61964297
-0.027376981 -0.044718828 0.61483544
0.16909599 -0.043357 0.610856
0.17416109 -0.044755604 0.61462492
-0.0306782 -0.03579345 0.61938953
-0.027933512 -0.035043638 0.61467803
0.17549877 -0.033600315 0.61545902
-0.031116201 -0.029427201 0.61982399
-0.027550912 -0.024310399 0.61464071
0.17446114 -0.025059458 0.6150232
-0.025828827 -0.014650166 0.61426932
0.1734464 -0.014743441 0.61493558
-0.024127793 -0.0049679796 0.61485398
0.16815181 -0.0050647282 0.61195642
0.17357792 -0.0049274089 0.61741012
-0.0225002 0.0030454455 0.61698616
-0.018415032 0.0063990504 0.61269337
0.16697671 0.0053348653 0.61506188
0.1712375 0.00327852 0.61661148
-0.015036017 0.015363507 0.61479276
0.1594605 0.01661725 0.61217856
0.1642805 0.0138733 0.61658216
-0.01185045 0.023026951 0.61691225
-0.007890352 0.026028425 0.61293304
0.148192 0.0290391 0.61037499
0.15553409 0.024906237 0.61491007
0.16083901 0.022231767 0.61874831
-0.0038354259 0.034379743 0.61600828
0.0024879582 0.03773772 0.6122086
0.137125 0.036423799 0.61100101
0.14588401 0.036024798 0.6147545
0.1528244 0.031914823 0.61839283
0.005418676 0.043814316 0.61592317
0.013665429 0.047232661 0.61271489
0.127406 0.049469098 0.61070597
0.13616243 0.046072416 0.61493254
0.141774 0.0418896 0.61602849
0.017617449 0.05219762 0.61630279
0.024726123 0.054783829 0.61431652
0.034261148 0.058035523 0.61233813
0.042187002 0.059325699 0.61045802
0.10686934 0.0592549 0.61237335
0.11446133 0.057590757 0.61453193
0.1239675 0.05398139 0.61508441
0.13232701 0.051692333 0.61788797
0.036268819 0.062531821 0.61761391
0.045199517 0.063975826 0.6153515
0.05551305 0.065729134 0.61408609
0.065071031 0.066775158 0.61361408
0.074925266 0.067084663 0.61422497
0.084917136 0.066518776 0.61460257
0.09528403 0.064411677 0.61383992
0.10450921 0.062923133 0.61619914
0.1117585 0.061674349 0.61878896
0.0598239 0.070125103 0.61986798
0.065440848 0.070334405 0.61956799
0.073576503 0.070586003 0.61993599
0.082483999 0.070209697 0.61985898
0.037913002 0.205139 0.61930251
0.046157449 0.20654653 0.61802989
0.055993635 0.20581801 0.61569321
0.066094741 0.20544797 0.61418009
0.075688384 0.20482337 0.61397702
0.08515989 0.20455129 0.61456764
0.094389841 0.20452814 0.61640465
0.10501785 0.20477095 0.61776078
0.110843 0.20645501 0.618792
0.048601601 0.210127 0.61824203
0.056475051 0.21055751 0.61562449
0.065956511 0.21155725 0.61609334
0.074472271 0.21510251 0.61615652
0.081595153 0.21634251 0.61482954
0.094198503 0.210824 0.61776352
0.10191566 0.21072866 0.61945128
-0.052088261 0.22885481 0.61744982
-0.044533778 0.22823261 0.61378151
-0.035738565 0.22792067 0.61494106
-0.025340408 0.22784077 0.61506736
-0.014621347 0.22773702 0.6154111
-0.0041029113 0.22720416 0.61450768
0.0051690117 0.22711568 0.61513549
0.015044699 0.22639824 0.61521274
0.025149548 0.2260256 0.61493158
0.034405045 0.22663146 0.61529177
0.044991791 0.22625846 0.61511904
0.05470141 0.22595166 0.61591077
0.06477797 0.22548486 0.61552769
0.07417541 0.22293854 0.61399686
0.084335014 0.22415039 0.6133374
0.09483292 0.22503792 0.61463845
0.10391659 0.22517946 0.61483985
0.11449407 0.22529553 0.6149053
0.12546873 0.22549798 0.61570781
0.13472301 0.22615199 0.61554945
0.1447393 0.22553 0.61565655
0.15501438 0.22573178 0.61556375
0.1647411 0.2250703 0.61540145
0.17459701 0.22538576 0.61443079
0.184891 0.22500211 0.61498922
0.19482876 0.22677431 0.61578518
0.200416 0.22901399 0.61863899
-0.053102165 0.2355915 0.61570263
-0.04940974 0.23423521 0.61220115
0.19615461 0.23557322 0.61214107
0.20162377 0.23424886 0.618716
-0.053773675 0.24400078 0.61425853
-0.049072649 0.2427395 0.61082947
-0.051853601 0.25023201 0.61669099
0.140848 -0.150822 0.62976199
0.055349998 -0.14286649 0.62802446
0.065437183 -0.14314979 0.62633377
0.073726647 -0.14271949 0.62420905
0.084441796 -0.14651051 0.62864399
0.096068166 -0.14013566 0.62791932
0.13865501 -0.14863899 0.62978703
0.018761801 -0.13433801 0.62519902
0.025199011 -0.13508409 0.62697601
0.035889573 -0.13388845 0.62592411
0.045147702 -0.13585237 0.6234045
0.054623526 -0.13791126 0.62193102
0.063326798 -0.13980201 0.62209404
0.075954735 -0.13814484 0.62201566
0.082287885 -0.1380188 0.620942
0.095882386 -0.13654619 0.62167239
0.105858 -0.13455699 0.62992698
0.114081 -0.13220833 0.62325031
0.0091911051 -0.1213905 0.62754202
0.014672607 -0.12328573 0.62401605
0.023986664 -0.12787889 0.62436664
0.033104502 -0.12998299 0.62128299
0.107735 -0.129722 0.62700099
0.116504 -0.12951601 0.62252104
0.12565601 -0.12644634 0.6238547
0.135472 -0.121726 0.62109947
0.149882 -0.12526999 0.62723202
0.15620884 -0.12472784 0.62830824
0.175225 -0.1230046 0.62797701
-0.0010728643 -0.1133665 0.62870347
0.0046183392 -0.11546878 0.6250211
0.0102967 -0.119531 0.62314397
0.12827399 -0.119577 0.62000102
0.13478824 -0.11766875 0.62017447
0.141225 -0.11417267 0.62112135
0.166237 -0.11604267 0.62940133
0.17363666 -0.11456367 0.62860996
0.18152501 -0.119013 0.62817103
-0.01346015 -0.101301 0.62788904
-0.0035317603 -0.10601556 0.62386352
0.147709 -0.10731734 0.62186068
0.15378699 -0.1033345 0.62346196
0.161966 -0.100066 0.626113
0.17697319 -0.10596161 0.62875414
0.1852726 -0.1037878 0.62905121
-0.024379101 -0.092271052 0.62687147
-0.014410158 -0.0946256 0.6255632
-0.0088925902 -0.098702699 0.62258202
0.15979549 -0.094901748 0.6243875
0.1658615 -0.092775047 0.629435
0.17879374 -0.095082924 0.62785876
0.18462558 -0.093284555 0.62788725
0.193927 -0.093654573 0.62862104
-0.022510175 -0.083677053 0.62636077
-0.017801601 -0.087074175 0.62272149
0.16574401 -0.085531503 0.62034601
0.17305949 -0.082859203 0.6282025
0.18633769 -0.086347714 0.62819594
0.19544442 -0.08582662 0.62865686
-0.025357034 -0.074942566 0.62505651
0.17781 -0.076110698 0.62882799
0.1972283 -0.073410816 0.62780148
0.20214444 -0.073138699 0.62732285
-0.0305246 -0.063682601 0.62713999
-0.02799101 -0.065190822 0.62405837
0.17645399 -0.065597743 0.62397599
0.1882436 -0.063176475 0.62413138
0.19840734 -0.066134468 0.62866765
0.20285128 -0.064986475 0.62783289
-0.032879014 -0.055223819 0.62446827
-0.02876275 -0.057496399 0.62087202
0.17824399 -0.056863099 0.62081599
0.180544 -0.052985299 0.6234895
0.19506919 -0.054604538 0.62923378
0.20764801 -0.0517844 0.6245935
0.21198601 -0.050562602 0.62526602
-0.044402201 -0.043730102 0.62554598
-0.032781061 -0.0452106 0.62475729
0.17951301 -0.047599699 0.62141001
0.1822286 -0.044336598 0.62535584
0.20691501 -0.0497462 0.62523103
0.21174634 -0.043746769 0.62705803
-0.033459157 -0.034907471 0.62540853
0.179086 -0.034286201 0.62409997
0.18415201 -0.037080899 0.62938797
0.21221161 -0.0362444 0.6269964
-0.032599203 -0.024793683 0.62435108
0.17810799 -0.024805676 0.6212275
0.1827125 -0.023893116 0.6266045
-0.047403101 -0.017617401 0.62946999
-0.032149445 -0.016156921 0.62474138
0.17850849 -0.0144176 0.62061703
0.18043201 -0.0136812 0.62586701
-0.040272702 -0.00096739299 0.62836802
-0.030914633 -0.0054252669 0.62675762
-0.02861166 -0.004927671 0.62223214
0.178882 -0.0053675799 0.62343049
-0.0306178 0.0013286 0.62977397
-0.026000064 0.0053721075 0.62467217
0.17209299 0.005136454 0.62150198
-0.022760265 0.013500478 0.6253531
-0.018691126 0.017228875 0.62250102
0.168661 0.01222775 0.622226
0.17362399 0.0111041 0.62706602
-0.020579699 0.0218971 0.629695
-0.014777478 0.025398446 0.62389559
0.15796125 0.029423375 0.62249124
0.16277526 0.024433699 0.62268424
-0.011843551 0.033201925 0.62764847
-0.0073193987 0.036355343 0.62308311
0.14816901 0.039767101 0.62122953
0.15471795 0.035339545 0.62371141
-0.0030324787 0.043656074 0.62588841
0.0037753105 0.048248436 0.623882
0.14534585 0.045758966 0.62416965
0.151287 0.042453598 0.62576801
0.005849055 0.054468684 0.62512833
0.014622023 0.055516329 0.62428731
0.023897031 0.058450565 0.6215567
0.12641267 0.058279116 0.62289906
0.13531727 0.054084197 0.62455994
0.14162324 0.051394574 0.62726003
0.0080353655 0.062452801 0.62743551
0.017920651 0.060480252 0.62699699
0.026904926 0.062730826 0.62558335
0.033169199 0.065776214 0.62495643
0.043101501 0.068639249 0.62395835
0.053748451 0.06968075 0.62281901
0.086965203 0.067398198 0.62000102
0.09669105 0.068580151 0.62156951
0.10359862 0.067243613 0.62207872
0.116887 0.063158616 0.62452501
0.12335315 0.061428197 0.62640315
0.038750298 0.070546702 0.62949002
0.045731641 0.072013296 0.62783629
0.054767601 0.072085515 0.62512761
0.063835829 0.073065355 0.62476635
0.076001987 0.073562004 0.6259166
0.084697932 0.0717628 0.62584871
0.093862332 0.070693962 0.62528265
0.062058602 0.19993401 0.62945998
0.085446656 0.19976899 0.62840605
0.0908475 0.199742 0.62919402
0.108653 0.199338 0.62820101
0.1125055 0.199357 0.62681901
0.018534701 0.20656399 0.62855041
0.025734797 0.20562485 0.62511027
0.034599926 0.20537034 0.6223923
0.044849578 0.20230533 0.62440896
0.054648507 0.20155552 0.62528205
0.065339416 0.20154268 0.62464917
0.075249575 0.20129919 0.62575042
0.084995985 0.20132299 0.62574899
0.095704004 0.2011244 0.62482619
0.10416202 0.2011853 0.62191874
0.11558257 0.20277722 0.62314427
0.12229358 0.2032814 0.6262849
0.0356724 0.210822 0.62571847
0.04439725 0.211891 0.62250805
0.078545079 0.21693525 0.62630701
0.084309377 0.21789449 0.62564731
0.095644675 0.21366051 0.62289524
0.109309 0.210719 0.62411797
0.11459133 0.21210666 0.62860066
-0.060231999 0.228441 0.62771899
-0.054968961 0.22736259 0.6255554
-0.044910174 0.22696126 0.62497801
-0.034686085 0.22719456 0.62611848
-0.025068022 0.22681133 0.62584269
-0.015072525 0.22676413 0.62584603
-0.0044626943 0.22627132 0.62448484
0.0051987479 0.22566316 0.62521243
0.015587372 0.22459254 0.62492752
0.025825154 0.22325861 0.62494409
0.034625895 0.22456734 0.62419683
0.044734929 0.22493036 0.62383139
0.055304937 0.2246528 0.6248579
0.06528502 0.22417174 0.62469202
0.073200233 0.22137181 0.62375051
0.086652301 0.22232001 0.62120003
0.09462712 0.22422177 0.62626588
0.1053576 0.22308515 0.62406719
0.11424149 0.2224817 0.62513369
0.12465958 0.22314307 0.62514341
0.13413684 0.22365081 0.62470865
0.14423676 0.22357351 0.62496585
0.15441054 0.22331338 0.62504667
0.16468759 0.22332899 0.62418133
0.17490223 0.2233073 0.62427986
0.18509781 0.22355694 0.6247865
0.19455612 0.22309712 0.62457669
0.20430319 0.22606327 0.62535846
-0.062432811 0.23451942 0.62807345
-0.057932209 0.2347701 0.62201971
0.2057326 0.23305956 0.62331098
0.21054551 0.2318705 0.62701404
-0.063045971 0.24227531 0.62424403
-0.058683448 0.242319 0.621696
0.108596 -0.16570599 0.63929701
0.10776401 -0.15285967 0.63568538
0.114828 -0.15157001 0.63619
0.1226385 -0.15239374 0.63918847
0.134691 -0.15319383 0.63892412
0.14269 -0.15158901 0.6364823
0.036497097 -0.14049 0.63161534
0.044237524 -0.14186674 0.63564646
0.053778298 -0.14241999 0.63351047
0.06863483 -0.14440466 0.63122135
0.074702136 -0.14570133 0.63269597
0.086664699 -0.14417399 0.63113397
0.094843797 -0.14275999 0.63006502
0.10603217 -0.14235701 0.63456047
0.11665618 -0.14601018 0.63648766
0.12549323 -0.14547169 0.63784987
0.13516164 -0.14501719 0.63772547
0.14524209 -0.14556108 0.63779843
0.15435217 -0.14337972 0.63592798
0.16086 -0.142161 0.63414502
0.017446799 -0.13033199 0.63274699
0.023642683 -0.13391501 0.63426512
0.035417933 -0.13710566 0.63338131
0.10622557 -0.13603659 0.63300139
0.11334699 -0.136494 0.63175398
0.125596 -0.13359234 0.63638669
0.13500856 -0.13646533 0.63724589
0.14627816 -0.13521154 0.63519615
0.15495475 -0.1345332 0.63447994
0.16355364 -0.1330789 0.63444877
0.17351601 -0.131385 0.634332
0.0059796181 -0.12265541 0.63305742
0.0125629 -0.1271895 0.63355148
0.022239299 -0.12901533 0.63433462
0.13716567 -0.12802933 0.63475829
0.14599515 -0.124935 0.63543099
0.15346812 -0.12302066 0.63595021
0.16578126 -0.12495694 0.63339555
0.1725425 -0.12266775 0.6318115
-0.0051102773 -0.11322385 0.63535637
0.00087382953 -0.117788 0.63267398
0.148581 -0.118347 0.63736099
0.15632392 -0.11498959 0.63645458
0.16373196 -0.11464034 0.63357204
0.17433795 -0.11515149 0.63177317
0.18414299 -0.11266685 0.6329338
-0.013266429 -0.10584456 0.63659889
-0.0080596646 -0.10692324 0.63218248
0.15679899 -0.108683 0.63265049
0.16652535 -0.10589452 0.63543749
0.17388293 -0.10519133 0.63314313
0.1837666 -0.10445545 0.63202411
0.19222701 -0.102116 0.63141567
-0.021959683 -0.093824774 0.63573498
-0.017536199 -0.095797114 0.63492948
0.16707802 -0.096208192 0.63470703
0.17476408 -0.095092975 0.63528019
0.18603709 -0.096497789 0.63221484
0.1930795 -0.09504389 0.63209015
-0.031824932 -0.081254162 0.63854432
-0.026035646 -0.085327014 0.63569444
0.17624573 -0.086088397 0.63506389
0.18329845 -0.085470885 0.63369662
0.19293022 -0.084841877 0.63272238
0.20069751 -0.081827506 0.63266098
-0.032449458 -0.0741098 0.63639367
-0.028462915 -0.075479634 0.63304269
0.18526635 -0.073639415 0.63420069
0.19395749 -0.07513316 0.63263881
0.20297766 -0.074025191 0.63166434
-0.033198759 -0.064075038 0.63378102
0.17953099 -0.067454897 0.63005102
0.18439589 -0.065003656 0.6332947
0.19593439 -0.065426357 0.63192248
0.20676 -0.060027 0.63400102
-0.043354101 -0.051139601 0.63931102
-0.036567718 -0.054619715 0.63460416
0.18712072 -0.055591218 0.63344002
0.19507688 -0.055005092 0.63287652
0.20381004 -0.054627858 0.63217187
0.211776 -0.054287601 0.63214701
-0.043067764 -0.043496501 0.63619697
-0.0361007 -0.04199475 0.630225
0.18816975 -0.045165922 0.63667351
0.19473349 -0.045365296 0.63405311
0.204427 -0.044153113 0.63444835
-0.043727249 -0.037099198 0.6348545
-0.037302084 -0.034922443 0.63363898
0.18776856 -0.034963984 0.63495064
0.19493879 -0.034856424 0.63494611
0.20523258 -0.035866227 0.6349929
0.212943 -0.033577267 0.63450301
-0.046611652 -0.026591949 0.633663
-0.037130155 -0.02549327 0.63236618
0.18747151 -0.02571065 0.63330048
0.196529 -0.025208032 0.63556612
0.2048355 -0.024750605 0.63574708
0.211004 -0.0291426 0.631639
-0.036476277 -0.0144774 0.63495642
0.18647677 -0.0167123 0.634027
0.19685376 -0.014621876 0.635782
0.20531462 -0.015098233 0.63778758
-0.033916008 -0.0064846501 0.63386732
0.18316251 -0.0044755987 0.63123846
0.19560133 -0.0045311209 0.63505757
0.20371591 -0.0043040458 0.63737899
-0.03544848 0.0037151482 0.63703185
-0.0289916 0.0072768349 0.63459975
0.185646 0.00189906 0.63460898
0.19678076 0.0017152505 0.6376245
0.208388 0.00136232 0.63913
-0.0303072 0.0185651 0.63493001
-0.026161879 0.015895929 0.6338433
0.17185999 0.018092399 0.63495898
0.189117 0.0161475 0.63133401
0.20058499 0.0174566 0.63810903
-0.022320457 0.024847144 0.63613003
-0.0188032 0.026969334 0.63224834
0.16769899 0.0264192 0.63606697
-0.020491701 0.0312216 0.63699102
-0.015429875 0.03562795 0.63503093
-0.0094198901 0.039501399 0.63081402
0.16266599 0.032441501 0.63772202
-0.012026874 0.041501552 0.63712454
-0.0064290613 0.045755446 0.63473618
0.0033190651 0.048679601 0.631001
0.147515 0.048981801 0.63446099
-0.0116782 0.0500644 0.63936502
-0.0030638406 0.052349124 0.63514525
0.0048028454 0.055682722 0.63450927
0.011164226 0.05782235 0.63300246
0.13812301 0.05660915 0.6333645
0.1417675 0.053675048 0.63066053
0.015456775 0.061466023 0.6319648
0.024243467 0.065069735 0.63123399
0.112457 0.067982897 0.63252723
0.12213 0.065049402 0.63011098
0.037461501 0.0723598 0.63383842
0.046470553 0.075097196 0.63267797
0.055192087 0.075596884 0.6328727
0.064296797 0.075011894 0.63126254
0.075619228 0.075774603 0.633246
0.085871667 0.076450497 0.63906437
0.096299499 0.072235197 0.6351015
0.105656 0.070835099 0.63406998
0.045513932 0.084152162 0.63622451
0.042543601 0.090191297 0.63591802
0.0207786 0.199808 0.63732803
0.037770901 0.1996875 0.63772154
0.046563603 0.19909 0.63772899
0.054467939 0.19898601 0.63584077
0.06691622 0.19855225 0.63647926
0.075339794 0.19895101 0.63415003
0.086362667 0.19845273 0.63751644
0.094897471 0.19913556 0.63425398
0.10563049 0.19913667 0.63384032
0.11566234 0.19958366 0.63736564
0.12351975 0.19951349 0.63500178
0.13101399 0.19922349 0.63523
0.0079454575 0.20400758 0.6379326
0.014741478 0.20383823 0.63382018
0.02442416 0.20131199 0.6338641
0.033134699 0.20118326 0.63251001
0.044804063 0.201023 0.63422143
0.056212734 0.20120765 0.63305736
0.0665695 0.20115 0.63434398
0.078092851 0.20212126 0.63335598
0.081740297 0.2043515 0.63000154
0.095581055 0.202099 0.63087797
0.1095 0.20066801 0.63129097
0.11503001 0.20068249 0.63125753
0.12794641 0.20333841 0.63309443
0.1329664 0.20175321 0.63478339
0.025211498 0.215341 0.63556147
0.033697899 0.219421 0.63974702
0.04706135 0.21877351 0.63745153
0.0547245 0.21907501 0.63747948
0.062632553 0.219047 0.63432473
0.076482654 0.21765 0.63402951
0.083719499 0.21889049 0.63496447
0.094865747 0.21874152 0.63588923
0.10551943 0.21888587 0.63584071
0.11377425 0.21962 0.63675749
0.1234044 0.21813241 0.637375
0.13121399 0.219055 0.63937497
0.1927225 0.219733 0.63984698
0.202123 0.2197395 0.63943601
-0.064632587 0.22764388 0.63571209
-0.054619767 0.22616643 0.63540912
-0.044304952 0.22618467 0.63573176
-0.034417711 0.22603798 0.63523912
-0.0242463 0.22561301 0.63663197
-0.015230054 0.22589952 0.63436073
-0.0039741751 0.22440217 0.63509297
0.0048284545 0.223653 0.63446754
0.01403296 0.22260991 0.63388675
0.025888225 0.220736 0.635068
0.035800327 0.22172977 0.63367152
0.04547083 0.22267418 0.63530064
0.055528115 0.22221036 0.63416725
0.063773051 0.22184351 0.6320318
0.073649958 0.22105022 0.63304859
0.084050827 0.22360179 0.634036
0.094034672 0.22242291 0.63285804
0.105111 0.220917 0.63223499
0.11506561 0.22054401 0.63471538
0.12428277 0.22150545 0.6341598
0.13474533 0.22128235 0.63453084
0.14580475 0.22130994 0.63453811
0.15506719 0.22129111 0.63503212
0.16493432 0.22170153 0.63553327
0.17516701 0.22154717 0.63488698
0.18522529 0.2209487 0.63581944
0.19542743 0.221113 0.63386548
0.20584205 0.22259408 0.63367093
0.21316265 0.22356243 0.63532829
0.221466 0.22211 0.63618702
-0.074299954 0.23809375 0.63819528
-0.067099705 0.23439419 0.63510978
-0.0711108 0.24119601 0.63592702
-0.068704247 0.24171573 0.63529599
0.10707574 -0.16321599 0.6465295
0.11505382 -0.16447984 0.64363366
0.12397981 -0.1639919 0.64295274
0.10778 -0.157426 0.64012301
0.114415 -0.15556437 0.64146632
0.12555051 -0.15656449 0.64184302
0.13485089 -0.15640345 0.64167392
0.14036401 -0.155352 0.642272
0.106098 -0.146276 0.64254802
0.11548901 -0.1462902 0.642093
0.123752 -0.140328 0.64149898
0.14589401 -0.146422 0.64039397
0.016565301 -0.13295101 0.641406
0.12568359 -0.13706541 0.64173579
0.13551533 -0.13426434 0.64177483
0.1449305 -0.13154225 0.64233273
0.151071 -0.130778 0.64300001
0.14770915 -0.12652656 0.64194632
0.15284801 -0.122504 0.64100099
-0.0103301 -0.111406 0.640719
-0.0070840903 -0.117715 0.64150047
0.150886 -0.116697 0.64179701
-0.0152533 -0.104578 0.64100051
0.161101 -0.106808 0.64367598
-0.022350851 -0.098434299 0.64233351
-0.032099701 -0.0823576 0.64433599
-0.0281191 -0.082256235 0.64159465
0.189106 -0.080240697 0.64070702
-0.036413066 -0.074737802 0.64583468
-0.027737731 -0.077963762 0.64133364
0.18664825 -0.076859072 0.64122379
0.19034301 -0.0755345 0.64134002
-0.041537199 -0.061762098 0.64828098
-0.038761202 -0.06454955 0.64332944
-0.04198778 -0.054808397 0.64775401
0.219247 -0.053013999 0.64890403
-0.041552234 -0.046620701 0.64374566
-0.037254799 -0.047578596 0.64000142
0.22377419 -0.046364281 0.64404881
-0.043068167 -0.034776334 0.6434707
-0.042697966 -0.025306299 0.64316398
-0.039203499 -0.0276499 0.64268202
0.1939971 -0.023847446 0.64156669
0.208891 -0.0281814 0.64110202
0.211044 -0.028658301 0.64057302
-0.044407532 -0.013279033 0.64782137
0.18757001 -0.013537999 0.64399803
0.19390599 -0.015048335 0.64140588
0.20471051 -0.0127577 0.64089453
-0.043142855 -0.0052119186 0.64781636
-0.037774779 -0.0051732361 0.6424284
0.18870401 -0.0037963276 0.64465767
0.19180711 -0.0051874216 0.64519423
0.205599 -0.004467288 0.64071065
-0.034238108 0.0045764106 0.64496148
-0.029680699 0.00647568 0.64095497
0.18566701 0.0055240965 0.64473498
0.19502966 0.0052866037 0.64302832
0.20464599 0.0039539877 0.64292395
0.210096 0.0076108798 0.64449602
-0.0402085 0.0132012 0.64280498
-0.033995483 0.014545984 0.64612651
0.1782628 0.017219059 0.64911658
0.18474269 0.015008519 0.64681309
0.19461869 0.01496729 0.64519298
0.20392449 0.012822517 0.64646584
0.210136 0.0121903 0.64447403
-0.025972575 0.02487053 0.64526111
0.17742774 0.025232974 0.64750051
0.18430741 0.02640518 0.64774543
0.19809401 0.023802498 0.64846468
-0.021748852 0.032845952 0.64410281
-0.01701092 0.036409639 0.64344746
0.17710133 0.035430733 0.64910072
0.18359543 0.036422603 0.648956
0.192601 0.034974597 0.64739597
-0.012137682 0.046035767 0.64415419
-0.0094154403 0.047119401 0.64193499
0.1812675 0.043198101 0.64731646
-0.0066618901 0.050775599 0.643143
0.0048746597 0.057115376 0.64254373
0.147313 0.054394402 0.64132398
0.16807601 0.051802099 0.64907348
0.173283 0.051360864 0.648678
0.0071162153 0.061462402 0.64224303
0.01575885 0.064231552 0.64655554
0.113679 0.0697909 0.640742
0.121726 0.069168299 0.64673501
0.138142 0.063459598 0.649584
0.045353264 0.078197502 0.64462
0.068475001 0.0783903 0.64152098
0.077657998 0.077481344 0.64532197
0.086194776 0.07656233 0.64281523
0.098810501 0.072576903 0.64317
0.1153185 0.07302545 0.64771599
0.0068428568 0.19955866 0.64546531
0.01699635 0.198955 0.64400125
0.026453901 0.19888675 0.64452147
0.036012501 0.19891934 0.64543635
0.045271832 0.198838 0.6448583
0.053524699 0.198295 0.64146399
0.063950934 0.198798 0.64511603
0.076750867 0.19844866 0.64143497
0.082700796 0.198431 0.64397103
0.095690429 0.198699 0.64207464
0.10417119 0.19895619 0.64417565
0.11568917 0.19885284 0.64305216
0.12533636 0.19830963 0.64447993
0.13595657 0.19869414 0.6451028
0.14448975 0.1990665 0.64738601
-0.0012718537 0.20274851 0.64910126
0.004293866 0.2022687 0.64410132
0.01417025 0.208607 0.64343351
0.037868001 0.202887 0.64042997
0.074033797 0.202158 0.64561099
0.081147097 0.200094 0.64599597
0.097555399 0.20140451 0.64444697
0.1162095 0.20083199 0.64350104
0.122895 0.202549 0.649001
0.13617001 0.20521601 0.6420843
0.143152 0.20320925 0.64589649
0.0080451397 0.211972 0.64226401
0.027512735 0.21934833 0.64541167
0.034519821 0.21945179 0.64247119
0.045025602 0.21837433 0.64200068
0.11667937 0.21813226 0.64246565
0.12550431 0.21722302 0.64482486
0.13486618 0.21668018 0.64485145
0.14433312 0.21929578 0.64522529
0.1553046 0.2190887 0.64577836
0.16490446 0.21896482 0.64616305
0.17633522 0.21922557 0.64558244
0.185757 0.2191242 0.64560115
0.1954077 0.21907671 0.64587945
0.20506269 0.21891335 0.64441091
0.21472713 0.21909986 0.64739656
-0.070612229 0.22701766 0.64658499
-0.064799629 0.22500771 0.64414555
-0.055034831 0.22484677 0.64485705
-0.045297865 0.22460155 0.64512163
-0.03513426 0.2247653 0.64394504
-0.024992699 0.22376128 0.64558303
-0.015515572 0.22365619 0.64478958
-0.0054874024 0.22221398 0.64594257
0.0042577153 0.22165211 0.64559031
0.014382116 0.22219633 0.64520001
0.023425676 0.22138487 0.64795327
0.036020502 0.220626 0.64200151
0.044953167 0.22177935 0.64100128
0.140884 0.220415 0.64800102
0.15654799 0.220075 0.64700001
0.168476 0.220079 0.64093
0.17451701 0.220098 0.64070904
0.1849305 0.2205025 0.64229953
0.21534528 0.22277229 0.6417858
-0.073644102 0.23532899 0.64489585
0.126581 -0.170508 0.65109199
-0.0366222 -0.078460403 0.650783
-0.041154198 -0.054872401 0.65200198
-0.0377247 -0.053729251 0.65200025
0.225206 -0.0533734 0.65287399
-0.047004551 -0.03446845 0.65200549
-0.046501201 -0.028144335 0.65301466
-0.044101432 -0.016603334 0.65146303
0.18945101 -0.0127592 0.6511755
0.19243801 -0.0102857 0.65193498
-0.029722501 -3.3411201e-08 0.65200001
-0.038442262 0.0059357402 0.65174997
0.186793 0.0039733052 0.6549865
0.190814 0.0025625899 0.650693
-0.033859935 0.015342668 0.65199834
0.18678766 0.015730932 0.65454668
0.191331 0.0189298 0.65351403
0.20343849 0.0136023 0.65161705
0.177187 0.02346435 0.65180647
0.18762966 0.026301434 0.65525699
0.19398052 0.024977414 0.65328467
0.17488681 0.034586739 0.65492737
0.188164 0.0335951 0.65098202
0.19239224 0.036170997 0.65413201
0.167427 0.045750298 0.65895271
0.17502928 0.044393312 0.65308255
0.18417314 0.046190429 0.65515602
0.19484651 0.043304302 0.65858352
0.16686916 0.056386918 0.65682721
0.17658401 0.055576503 0.65532821
0.18286175 0.053260349 0.65770257
0.021968599 0.068141997 0.65499401
0.133765 0.065016598 0.65156603
0.1559715 0.067587897 0.65955848
0.16344151 0.062980048 0.65850854
0.17367999 0.064329699 0.65837902
0.033919703 0.073467165 0.65303594
0.10894 0.074523799 0.65192699
0.117079 0.072087899 0.65462196
0.124104 0.0709472 0.659913
0.046017598 0.082150802 0.65930498
0.057455502 0.083033249 0.65569597
-0.0031617584 0.19930699 0.65467101
0.0047329585 0.19888471 0.65501434
0.015364801 0.19880959 0.65398324
0.0245353 0.19818433 0.65667701
0.034354836 0.19857334 0.65461534
0.044989899 0.19946226 0.65464127
0.054864198 0.19981399 0.65427852
0.076719999 0.1998495 0.65811145
0.087595299 0.19927201 0.65048403
0.095800623 0.19966725 0.65531254
0.10458934 0.199 0.65492433
0.114513 0.198202 0.6524933
0.125531 0.19730717 0.6552462
0.13524736 0.19735192 0.65527982
0.1452035 0.1967105 0.65460825
0.15399733 0.19728233 0.65764964
-0.0045737759 0.20306171 0.65456641
0.0061886003 0.20020449 0.65390599
0.0156061 0.20285781 0.65440094
0.024578251 0.201199 0.65200102
0.05494 0.200442 0.65638399
0.073178999 0.20071401 0.65857899
0.08489535 0.200387 0.65966201
0.095638603 0.200856 0.6554935
0.111684 0.20127399 0.65264899
0.123103 0.200307 0.65466601
0.136136 0.200743 0.65800202
0.15153401 0.203272 0.65881503
-0.022056816 0.21889801 0.65681344
-0.014501084 0.21850432 0.65514201
-0.0048803757 0.21764137 0.65591264
0.0042245616 0.21786191 0.65681881
0.0115194 0.218869 0.65700102
0.0217361 0.2196575 0.65250051
0.127643 0.216537 0.650002
0.13555901 0.21708974 0.65373492
0.14442886 0.21702459 0.65598696
0.15560783 0.21728218 0.65507847
0.16451918 0.21712399 0.65581113
0.1747023 0.21759871 0.65545464
0.18393888 0.21762612 0.65482563
0.194151 0.2179675 0.65479606
0.20470162 0.21720819 0.65510023
0.21525536 0.217485 0.65492654
0.22263001 0.21821384 0.6577515
-0.084703602 0.228066 0.65888298
-0.07323432 0.22547315 0.65498561
-0.065302312 0.22282879 0.65587193
-0.05617496 0.22279592 0.65420735
-0.045450207 0.22275631 0.65557301
-0.035051577 0.22314902 0.65361112
-0.026444951 0.22160301 0.65466344
-0.014977375 0.22052725 0.65146649
-0.0047727013 0.2202516 0.65161884
0.0076177851 0.220479 0.65258455
0.014560968 0.22063945 0.65244842
0.221668 0.220447 0.65374202
-0.082372651 0.234813 0.65718102
-0.076980032 0.23330361 0.65468663
0.175751 0.034220651 0.66085398
0.165931 0.0467503 0.66233999
0.170064 0.041358199 0.66362703
0.190983 0.041486099 0.662256
0.14968701 0.059559401 0.66721398
0.15796499 0.0569719 0.66526079
0.1622463 0.05513683 0.66387659
0.18261401 0.055782836 0.66134334
0.14870626 0.066274822 0.66838872
0.15338014 0.06447614 0.66449004
0.16445237 0.066875055 0.66398627
0.17377274 0.06413243 0.66472787
0.0260817 0.072102197 0.66450697
0.0336271 0.070984297 0.66535097
0.095004901 0.079227097 0.66139698
0.10029399 0.077933446 0.66483349
0.121782 0.073926702 0.66377699
0.13834399 0.078023404 0.66872948
0.146708 0.075718977 0.66568077
0.15414988 0.07515233 0.66735256
0.1635645 0.072992198 0.666394
0.0452758 0.085810401 0.66294199
0.1429795 0.08284945 0.66805452
-0.0042845071 0.19829813 0.66514474
0.006337876 0.19736819 0.66558558
0.0150443 0.19781239 0.66211599
0.025358099 0.1980478 0.66516662
0.034878001 0.19888249 0.66644001
0.041059699 0.19966701 0.660896
0.0847212 0.1999625 0.66731948
0.097883396 0.19980867 0.66631532
0.10488918 0.19900399 0.66523784
0.11383936 0.19809137 0.66498035
0.12501575 0.19643626 0.66353327
0.13561313 0.19527501 0.66565132
0.14526924 0.19579475 0.66465837
0.15472044 0.19705656 0.66439426
0.16178299 0.196787 0.66890597
-0.010867967 0.20388366 0.66556734
-0.0070408983 0.20421819 0.66292363
0.0124809 0.20050301 0.66445798
0.046512902 0.20039099 0.66666496
0.055812702 0.20097649 0.6648885
0.064440548 0.20084301 0.66389728
0.074818403 0.2013105 0.66184497
0.086520277 0.20067713 0.66600937
0.092731357 0.200249 0.66489041
0.10423434 0.20142202 0.66338032
0.122235 0.20058599 0.667925
-0.03534415 0.21966851 0.669182
-0.026405118 0.21832748 0.66455734
-0.015361874 0.21712074 0.6636588
-0.0052665747 0.21533054 0.66312611
0.0034943884 0.21704176 0.66375124
0.0115895 0.21788301 0.66100103
0.14746879 0.214215 0.66404951
0.15434891 0.21474759 0.66466719
0.16486911 0.21557833 0.66494393
0.1752315 0.21594086 0.66615874
0.18492572 0.21623215 0.6652993
0.19502924 0.21674573 0.66405416
0.20453824 0.21617724 0.6664741
0.21441226 0.21629049 0.66518438
0.22364777 0.21697234 0.66676992
-0.094424903 0.226592 0.66953599
-0.083295815 0.22654544 0.66508454
-0.075956702 0.22359341 0.66425014
-0.065765053 0.2204839 0.66629374
-0.055212315 0.22129013 0.66473001
-0.045668054 0.22118065 0.66601115
-0.035696719 0.22107548 0.66430211
-0.090317398 0.23037501 0.66964102
-0.084742591 0.23292351 0.66311646
-0.084113903 0.240261 0.66332102
0.0149005 0.067936599 0.67262602
0.14440332 0.068342566 0.67271966
0.025433801 0.072732851 0.67523849
0.1272465 0.078269251 0.67898548
0.13449392 0.074933864 0.67513138
0.14571334 0.076521367 0.67211932
0.15496901 0.079053998 0.67238402
0.161176 0.076484799 0.67084002
0.046375599 0.085390598 0.67065299
0.064298853 0.085600853 0.67796504
0.118876 0.087968402 0.67800099
0.1246312 0.085659951 0.67633307
0.13423288 0.085051037 0.67495692
0.14381149 0.086378753 0.67383754
0.15450437 0.084534273 0.67543125
0.118876 0.090346001 0.67800099
0.1325345 0.091814697 0.67736173
-0.0114248 0.1979105 0.67545545
-0.0058539081 0.19658349 0.674272
0.0043903198 0.19620676 0.67296702
0.015387501 0.19766933 0.67440075
0.02416732 0.198227 0.67665017
0.033398099 0.19949333 0.67672229
0.04338032 0.1995898 0.67679459
0.055115055 0.19932483 0.67673802
0.064644225 0.19889215 0.67626858
0.076734632 0.19911301 0.67457563
0.086234741 0.19870056 0.67360198
0.095241666 0.1983469 0.67382312
0.10401624 0.19829024 0.67375642
0.1144768 0.19766681 0.6761328
0.124981 0.195678 0.67537767
0.136144 0.19421984 0.67395115
0.14654741 0.19320962 0.6750353
0.15485574 0.19371359 0.67418653
0.16302156 0.19560787 0.67516059
-0.013759399 0.20343924 0.67499304
0.023193426 0.20129625 0.67819893
0.048376247 0.20413551 0.67300051
0.054319885 0.20217988 0.67190057
0.066564798 0.20042799 0.67086703
0.073131099 0.20005301 0.67175603
0.120237 0.201368 0.67028201
0.15763301 0.20833701 0.67208898
-0.090285704 0.217191 0.679829
-0.081573904 0.21940599 0.678684
-0.075345367 0.21929134 0.67677051
-0.066033036 0.21949868 0.67627901
-0.05576722 0.21927162 0.67696124
-0.045331098 0.2188569 0.67649138
-0.034814578 0.21837832 0.67582297
-0.024932574 0.2175145 0.67351848
-0.014023121 0.21609159 0.6755482
-0.0059192153 0.21784475 0.67525125
0.0011765077 0.216474 0.67100102
0.1468415 0.217326 0.67000151
0.1559379 0.21310467 0.67309445
0.16536114 0.213787 0.67510873
0.17539775 0.21493199 0.67451686
0.18563285 0.21523385 0.67377824
0.19392633 0.2155205 0.67451483
0.20459375 0.21547276 0.67447561
0.21558517 0.215451 0.67442101
0.22409691 0.21530293 0.67569518
0.2339195 0.216232 0.67505199
-0.085170679 0.22340766 0.67469895
-0.0798048 0.22065499 0.67140001
-0.055052597 0.22029434 0.6718173
-0.0483279 0.220254 0.67140001
0.11526633 0.077533565 0.68353802
0.12713033 0.077946968 0.68341798
0.063380398 0.086292498 0.684847
0.073920399 0.086590298 0.68411601
0.098916054 0.088059545 0.68800098
0.10629036 0.085629962 0.68718654
0.11520834 0.08438383 0.68419707
0.12100101 0.082070351 0.68048751
0.146854 0.084990501 0.68145901
0.085123099 0.0945675 0.68984997
0.096789427 0.093982115 0.68841743
0.10461607 0.094578899 0.68624699
0.11471669 0.094306111 0.68445987
0.12542829 0.096206523 0.68483704
0.13558151 0.09528105 0.68595397
0.0753984 0.10903 0.68984997
0.096326448 0.10116425 0.68904501
0.10874701 0.10253934 0.68821603
0.113067 0.101925 0.68615699
0.122447 0.100675 0.683716
0.075895749 0.11421688 0.68965101
0.074874699 0.120277 0.68972498
0.089754596 0.121543 0.68977702
0.048622698 0.13628399 0.68345499
0.05451284 0.13845012 0.68648744
0.065495193 0.13670182 0.68704265
0.074601278 0.1336576 0.68837374
0.046310421 0.14429729 0.68858039
0.053590097 0.14421019 0.68682647
0.064414799 0.1405552 0.68785995
-0.015027443 0.19712472 0.68666589
-0.0052040098 0.19541171 0.68575186
0.0064247348 0.19579543 0.6854831
0.014807671 0.19690357 0.68612468
0.02490418 0.19689181 0.68542355
0.035401627 0.19780728 0.68574965
0.044821966 0.19785349 0.6842103
0.054219399 0.19752558 0.68445927
0.06360919 0.19678587 0.68535268
0.075160004 0.19735679 0.68621939
0.085128956 0.1968651 0.6867218
0.09595754 0.19632834 0.68412161
0.10524262 0.19581637 0.68546075
0.11518934 0.1959445 0.68528491
0.12540662 0.1949445 0.68525332
0.13383578 0.19482034 0.68489432
0.1449445 0.19165102 0.68576205
0.15510601 0.19145937 0.68447661
0.16508651 0.19263183 0.68542308
0.1712275 0.193956 0.68943655
-0.015434651 0.201285 0.68372953
0.019076301 0.202686 0.68000102
0.022356 0.200441 0.68588603
0.037742268 0.20316601 0.68700033
0.042001098 0.202831 0.68450153
0.064748153 0.2008515 0.68625045
0.084065199 0.20177349 0.68500048
0.159693 0.20667399 0.68035299
0.16432734 0.207195 0.68309098
-0.084023438 0.21869235 0.68473786
-0.075349987 0.21802752 0.68541253
-0.065498598 0.21804734 0.684771
-0.056016479 0.21774612 0.68500853
-0.045913324 0.21750399 0.68538183
-0.034800008 0.21667781 0.68543899
-0.024129299 0.21684912 0.68609226
-0.015499378 0.216276 0.68504912
0.1646858 0.21196219 0.68323165
0.17434801 0.21345112 0.68506086
0.18486811 0.21403843 0.68392718
0.19536838 0.21445188 0.68461585
0.2055441 0.2142321 0.68388587
0.21567023 0.21414144 0.68456304
0.22526254 0.21350791 0.68487388
0.23376034 0.21328433 0.68325502
-0.090370499 0.22315949 0.68050897
-0.021586901 0.220668 0.68400103
-0.0143492 0.22002199 0.68200099
0.017619699 0.074370503 0.69273299
0.0297994 0.081465296 0.694314
0.0375048 0.082413398 0.69660902
0.041248299 0.083582804 0.69113803
0.059495699 0.089239404 0.69400501
0.072891101 0.0882999 0.69200701
0.0896549 0.089655101 0.691001
0.095002547 0.088347971 0.69025123
0.1020595 0.086415768 0.69083226
0.059647098 0.096706502 0.69310099
0.074600585 0.096481569 0.69390917
0.085425653 0.095288858 0.69318199
0.094886512 0.095212385 0.69028699
0.105584 0.0971727 0.69089997
0.116321 0.099843897 0.69224399
0.057742126 0.10767075 0.69887722
0.065004513 0.1055415 0.69661665
0.074852169 0.10514164 0.69308633
0.085650235 0.10606128 0.69404787
0.093896598 0.10406867 0.69307536
0.10573766 0.10127967 0.69171166
0.118006 0.101117 0.69220197
0.057358567 0.11490924 0.69734436
0.064333841 0.1147938 0.69439423
0.075214349 0.11535629 0.69031256
0.085692219 0.11531311 0.69398218
0.056688651 0.12476345 0.69823426
0.065311693 0.12509671 0.6941765
0.074932352 0.12524869 0.69105923
0.085446723 0.12508589 0.693932
0.095266767 0.12894399 0.69555426
0.055232652 0.13501249 0.69668001
0.062811971 0.13305146 0.69441247
0.076814398 0.138753 0.69108802
0.084157057 0.13392836 0.69309813
0.092377752 0.13297001 0.69732922
0.038354035 0.14604226 0.69502205
0.042340223 0.14384162 0.69187516
0.057921167 0.148967 0.69276166
0.066557854 0.14637224 0.69564551
0.075439207 0.14515877 0.69482523
0.083122641 0.14428341 0.69737959
0.039106298 0.151537 0.69700199
0.043963619 0.15047619 0.69207299
0.066163957 0.15424655 0.69838083
0.074140258 0.1551982 0.69691002
0.084799148 0.15571091 0.69837636
0.090886354 0.156212 0.69888103
0.065643743 0.16552141 0.69874775
0.075362317 0.16558282 0.69680005
0.084516555 0.16326968 0.69789624
0.090964504 0.16197 0.69928199
0.0577977 0.17902599 0.69975698
0.065425314 0.17540266 0.69859213
0.075069502 0.17570436 0.69771564
0.085148297 0.17767915 0.69716996
0.094586551 0.17726499 0.697079
0.056904908 0.1847889 0.69873804
0.064165637 0.1851024 0.69478238
0.075203873 0.18399145 0.69233251
0.085750245 0.18546931 0.69255686
0.095711514 0.18635638 0.69554645
0.10268066 0.18501633 0.69877434
0.15524484 0.18958901 0.69348854
0.165013 0.18923301 0.6947574
0.17196 0.189548 0.69868201
-0.021629499 0.19688675 0.69630504
-0.014104174 0.19424236 0.69456178
-0.0041087982 0.19340616 0.69480801
0.0043644221 0.19452228 0.69435728
0.015420185 0.19568357 0.69553047
0.025225416 0.19651733 0.69474745
0.034927502 0.19610712 0.69495773
0.044524491 0.19616418 0.69552439
0.054531675 0.19478415 0.69542682
0.064771362 0.1942776 0.69353229
0.074707977 0.19299676 0.69155735
0.085511848 0.1926817 0.69292229
0.094104804 0.19297718 0.6950317
0.10415833 0.19325969 0.6962021
0.11473091 0.19476609 0.69506317
0.12318617 0.19416384 0.69494969
0.13510667 0.19264221 0.69564164
0.14361049 0.19201849 0.69410419
0.15000799 0.190238 0.69635099
0.161314 0.190643 0.69700098
0.17139833 0.19204967 0.69279534
-0.02079555 0.20434 0.69517797
0.026846999 0.200132 0.69600099
0.064166702 0.2009725 0.6905005
0.079846799 0.2020365 0.69000101
0.1726885 0.20772201 0.69669247
0.228753 0.20857701 0.69965202
0.2321855 0.2095605 0.69749051
-0.092279136 0.2164048 0.69774961
-0.084244959 0.2174461 0.69467616
-0.074430399 0.2161268 0.69470656
-0.064315796 0.21605301 0.69431221
-0.054629955 0.21587472 0.6950534
-0.045021787 0.21577756 0.69376642
-0.033713687 0.21480213 0.69499177
-0.023848474 0.21349406 0.69541967
-0.01613464 0.212428 0.69199741
0.16754501 0.21176267 0.69626766
0.17525069 0.21241041 0.69442284
0.18589765 0.21272987 0.69447923
0.19525425 0.21266973 0.69496727
0.20523778 0.21238956 0.69450366
0.21521811 0.21227959 0.69407111
0.22551139 0.21160938 0.69412422
0.23119168 0.21303467 0.69380599
-0.089075297 0.22229201 0.69270998
0.0091503449 0.078197747 0.70919096
0.0918606 0.079447202 0.70800102
0.0078228302 0.087382853 0.70865351
0.01050185 0.0847914 0.70870554
0.0263412 0.080518097 0.70337498
0.035677951 0.086884551 0.7088905
0.045645799 0.087756298 0.709144
0.057418801 0.087088898 0.70303398
0.069035299 0.089855097 0.703417
0.076154597 0.087190427 0.70337021
0.086707316 0.086401239 0.70280659
0.093023129 0.08685942 0.70275098
0.046382852 0.0931798 0.70583171
0.056064647 0.096118405 0.70613921
0.065177292 0.094216712 0.70319098
0.075611897 0.092615463 0.70145297
0.082476698 0.093768418 0.70000136
0.058912002 0.106778 0.700001
0.063183501 0.1014295 0.70316201
0.055335552 0.12458766 0.70278883
0.056368213 0.13455744 0.70330596
0.0614544 0.137658 0.701002
0.033192225 0.14928876 0.70072126
0.088237226 0.1446747 0.70166075
0.093748637 0.14605533 0.70701176
0.028028751 0.15097749 0.70610601
0.032510139 0.1523886 0.70390415
0.0487075 0.156775 0.70534903
0.057696283 0.15671201 0.70481461
0.062961638 0.15543762 0.70123583
0.086564884 0.1529994 0.70143044
0.091746598 0.15379699 0.70171863
0.056573085 0.16586171 0.70526469
0.063777156 0.16501309 0.70182902
0.087479934 0.1678312 0.7016266
0.09251783 0.16559333 0.70436764
0.049434498 0.177146 0.70882648
0.055552334 0.17403443 0.70392603
0.064026326 0.17324278 0.70092607
0.0785494 0.176736 0.70000201
0.085483566 0.17458329 0.70237219
0.094762437 0.17581999 0.70323962
0.10316333 0.17759033 0.7039333
0.11048 0.177414 0.70574898
0.048499648 0.18579467 0.705796
0.052167553 0.18429351 0.70219797
0.088872701 0.180215 0.70400101
0.0913416 0.180215 0.70400101
0.1048145 0.18498959 0.70282644
0.1123594 0.1863852 0.70708734
0.137023 0.189842 0.70746899
0.1450742 0.189311 0.70677102
0.15445444 0.18833914 0.70456082
0.16348533 0.18774199 0.70455092
0.17262299 0.18865375 0.7036255
-0.0234221 0.19450633 0.70480317
-0.015993901 0.1920445 0.70463276
-0.0044836388 0.192275 0.70547426
0.0046652243 0.19403359 0.70513403
0.013752167 0.1929345 0.70561451
0.024830444 0.19388278 0.70517403
0.035860088 0.19405286 0.70513916
0.045778237 0.19324288 0.70424807
0.052404627 0.19227751 0.70407999
0.1058346 0.1920488 0.7017144
0.11450844 0.19178277 0.70436418
0.12410066 0.1918028 0.70498991
0.13466351 0.19148433 0.70525551
0.14333574 0.19147125 0.70237452
0.15075301 0.191194 0.706348
0.17618699 0.190254 0.70826799
-0.0228782 0.20607975 0.70399654
-0.0197495 0.20737 0.704
0.1776925 0.20591925 0.70457923
0.18617301 0.20973399 0.70696902
0.190947 0.209961 0.70702302
0.206119 0.20983601 0.70603698
0.214432 0.20977999 0.70775366
0.2266293 0.20893529 0.70568144
0.23529834 0.20865767 0.70528531
-0.092091031 0.21455567 0.70540363
-0.084429689 0.2146484 0.70506835
-0.074151389 0.21468143 0.70356613
-0.064927682 0.21455579 0.70523757
-0.054829255 0.21458855 0.70468068
-0.044034891 0.21403158 0.70441139
-0.034562025 0.21350458 0.70457411
-0.025914267 0.21189368 0.70473582
0.17807651 0.2107275 0.70209897
0.18552729 0.21106985 0.70436352
0.19420435 0.21138167 0.70289201
0.20544939 0.2107161 0.70396727
0.21621035 0.21053334 0.70299435
0.22509176 0.21051151 0.70187527
0.23228399 0.210337 0.70210302
0.0052246498 0.077937603 0.712744
0.015653016 0.077640772 0.71368599
0.0259727 0.077249303 0.71010101
0.0052334499 0.080427296 0.712726
0.015537431 0.084908463 0.71451831
0.024531368 0.086323701 0.71164018
0.034305144 0.086104944 0.71329987
0.045880001 0.087698065 0.710778
0.098482996 0.083523698 0.71100098
0.102274 0.082345702 0.71070099
0.0080552502 0.096786603 0.71882302
0.016594032 0.094190128 0.71755952
0.025016978 0.096457779 0.71735221
0.033865232 0.092381366 0.71466398
0.043325827 0.093617305 0.71490127
0.024381423 0.10280875 0.71883047
0.0340151 0.107539 0.71987402
0.041376352 0.1016115 0.71941304
0.0497698 0.112695 0.71970898
0.094331197 0.13917451 0.71396196
0.094696388 0.14227128 0.71181387
0.0401733 0.15774199 0.71047097
0.0580003 0.158301 0.71709901
0.094920501 0.154478 0.71338546
0.0389264 0.16024201 0.71046698
0.048682868 0.16832967 0.71532935
0.052846387 0.16528621 0.71374381
0.18538 0.169533 0.71709901
0.047163028 0.17608516 0.71481186
0.052284401 0.174281 0.71000099
0.097992599 0.171638 0.71936899
0.104016 0.17657 0.71806902
-0.01430325 0.1897655 0.71762097
-0.0075703901 0.18902799 0.71935099
0.044620436 0.1855385 0.71418816
0.11684161 0.18611488 0.71437949
0.124573 0.18865158 0.7165671
0.13593467 0.188612 0.71459931
0.14557144 0.18759434 0.71483159
0.15598433 0.18635382 0.71402019
0.16508435 0.18604749 0.71481866
0.17388526 0.185605 0.71487749
0.194297 0.185259 0.71975499
0.204445 0.187342 0.71943599
0.2146785 0.1861375 0.718319
-0.024484541 0.19315159 0.71507514
-0.015491117 0.19107752 0.7142778
-0.0051140417 0.19049059 0.71393359
0.005018157 0.19322246 0.71408725
0.013318226 0.1917275 0.71528423
0.025216941 0.19317757 0.71366495
0.035155937 0.1925555 0.7138927
0.043008652 0.191542 0.71294576
0.116545 0.19129699 0.711263
0.12385724 0.19044 0.71382302
0.16524801 0.190286 0.714001
0.17942333 0.19398034 0.71531171
-0.025767621 0.20538339 0.71544254
0.18459076 0.2072939 0.71519685
0.19611886 0.20895043 0.71567506
0.2056894 0.20869651 0.71528339
0.21439663 0.20812535 0.71437669
0.2248909 0.20763001 0.71409142
0.23244259 0.20682101 0.71410799
0.24034999 0.203255 0.714921
-0.093757719 0.2136585 0.71422243
-0.084136605 0.21367824 0.71490979
-0.075394467 0.21380687 0.71537679
-0.06410335 0.21384449 0.71561551
-0.054848604 0.21417725 0.71577126
-0.045307003 0.2133214 0.71527863
-0.033956531 0.2120775 0.71508521
-0.028026 0.2103695 0.71522653
0.184163 0.210778 0.71935701
0.20325901 0.21006501 0.71630502
0.21017 0.21028601 0.71140099
0.0071898499 0.076916702 0.727292
0.0114675 0.075325698 0.72009599
0.0140866 0.095933601 0.72019351
0.026025999 0.099602498 0.721466
0.035089735 0.09797477 0.72108936
0.041200101 0.097112402 0.72230703
0.015868301 0.10231 0.721964
0.026592249 0.1041815 0.7215187
0.035696737 0.10482881 0.72178197
0.044561632 0.10607054 0.72203583
0.054039728 0.10584357 0.72280139
0.03143765 0.1114825 0.7227475
0.045227934 0.11143982 0.72331685
0.053194236 0.11258034 0.72253829
0.048170999 0.159725 0.723001
0.030947501 0.16007601 0.72232503
0.0472617 0.16264001 0.72508401
0.053568579 0.1619896 0.72348374
0.094101302 0.164535 0.72385103
0.046459548 0.174656 0.72250849
0.098571002 0.174887 0.72608799
0.103592 0.17553151 0.72689748
0.17626636 0.17580287 0.72719532
0.18417498 0.17615144 0.72760993
0.1974315 0.175036 0.7232185
0.20476167 0.17850101 0.724823
-0.022487249 0.188916 0.72238851
-0.01526428 0.18809161 0.72522736
-0.0047217156 0.1885362 0.72496378
0.0045141852 0.18927084 0.72583032
0.01449685 0.189486 0.72682148
0.037128557 0.18881314 0.7262072
0.043838974 0.18424186 0.72373474
0.109695 0.185735 0.72081202
0.119451 0.184751 0.72081101
0.12758225 0.18774849 0.72241849
0.13451117 0.18715835 0.72547513
0.14574514 0.18686557 0.7264536
0.15553322 0.18555388 0.72531307
0.16763185 0.18523301 0.72531158
0.17453626 0.18259099 0.72365022
0.18719621 0.1853694 0.72346616
0.19489938 0.18462054 0.72276342
0.20357776 0.18417275 0.72363454
0.214202 0.1864285 0.72241855
-0.024590999 0.19249749 0.7213102
-0.00509864 0.191201 0.72700202
0.0060251998 0.19083351 0.72537351
0.015984071 0.19205284 0.72367096
0.024433078 0.191723 0.72356129
0.032490302 0.192183 0.72380596
0.043311302 0.190356 0.72291499
0.169866 0.19014899 0.723001
0.17517202 0.19103901 0.72422737
0.185261 0.19449401 0.7268185
0.19675924 0.19422249 0.72400177
0.2034115 0.19362637 0.72534317
0.233419 0.19982199 0.728773
-0.029783567 0.20417333 0.72819328
0.179261 0.20955899 0.72000098
0.18556499 0.20603602 0.72536033
0.19682214 0.20718676 0.72554952
0.20462927 0.20500086 0.72641921
0.21448533 0.20542099 0.72318745
0.22554632 0.20639861 0.72375977
0.23333615 0.20309685 0.72601575
0.24163599 0.20127501 0.725914
-0.094215624 0.21218225 0.72478199
-0.085317686 0.21251546 0.72452426
-0.07602597 0.21283233 0.72565812
-0.067204736 0.21320868 0.7261467
-0.056183115 0.21345849 0.72581971
-0.045661166 0.21303333 0.725425
-0.03585412 0.21150219 0.72390139
-0.0297863 0.210189 0.72380799
0.1779985 0.212083 0.72000003
0.038274501 0.16427299 0.73625201
0.042403299 0.16693 0.73903799
0.044326253 0.17667401 0.73255002
0.10534099 0.17345934 0.73588771
0.166159 0.177175 0.73279601
0.17467809 0.17506969 0.73455292
0.18370833 0.17246866 0.73081034
0.19604515 0.17786442 0.73101777
-0.0227434 0.18753099 0.73571002
-0.015629975 0.186496 0.73643124
-0.0050291386 0.18612015 0.7358163
0.0039184787 0.18762171 0.73404092
0.014471101 0.1883852 0.73418218
0.024526501 0.18881401 0.73440874
0.035857972 0.18709944 0.73466587
0.114617 0.185102 0.73520499
0.12416075 0.186224 0.7348392
0.13433781 0.18600319 0.73562926
0.14501314 0.185358 0.73589987
0.15434544 0.18441901 0.7359466
0.16644499 0.18279199 0.73479176
0.17464012 0.18376112 0.73409235
0.18506899 0.1849362 0.7333566
0.19225299 0.181999 0.73100001
-0.030151499 0.19861899 0.73834598
-0.0218233 0.19132701 0.73796898
0.0069975802 0.190109 0.732997
0.0128169 0.19225299 0.73100102
0.188555 0.194838 0.73927099
0.19555099 0.199569 0.73663402
0.21099199 0.199992 0.73976201
0.23469019 0.19898181 0.73844516
-0.033829 0.209088 0.73757398
0.19471973 0.20385218 0.73301482
0.20337349 0.20277651 0.73009598
0.21617186 0.20393339 0.73503435
0.2258141 0.2038421 0.73542917
0.2327885 0.20178801 0.73595285
-0.090166301 0.21132401 0.732683
-0.085435048 0.21129225 0.73496276
-0.075687386 0.21146867 0.73458201
-0.064928256 0.21170978 0.73455679
-0.055736925 0.21173443 0.7357145
-0.04586358 0.21142468 0.7345823
-0.034167152 0.2108795 0.73497176
-0.0291104 0.210703 0.73887098
0.037813101 0.159766 0.74289501
0.037197299 0.16360575 0.74278849
0.044868801 0.16446599 0.74064898
0.046463098 0.171088 0.740197
0.1045745 0.1756005 0.74413645
0.11618481 0.17583618 0.74374616
0.1643835 0.17955351 0.74856305
0.204055 0.177811 0.748739
-0.0207782 0.187169 0.74968702
-0.013644085 0.18619372 0.74615574
-0.004968957 0.18439424 0.74443102
0.0041297399 0.18605614 0.74513781
0.014819029 0.18624757 0.74423826
0.025337001 0.18696703 0.74586612
0.035249826 0.18614849 0.74709618
0.042110998 0.180052 0.74022597
0.11451634 0.18193699 0.74557656
0.12474983 0.184173 0.74320436
0.13555279 0.18530959 0.74372202
0.145886 0.18383415 0.74547619
0.15561861 0.18268879 0.74627137
0.16336158 0.18246658 0.74292564
0.18838701 0.1857885 0.74100101
0.192544 0.18473834 0.74200171
-0.0307886 0.196851 0.74621302
-0.024117051 0.190869 0.74570149
-0.0157168 0.191222 0.74700099
0.034053199 0.191222 0.74699998
0.115009 0.191218 0.74516797
0.194361 0.19436 0.74900198
0.21738701 0.199385 0.74814898
0.225878 0.199614 0.74900103
0.2318314 0.198327 0.74723965
-0.090998948 0.20810601 0.7462765
-0.0860691 0.20908499 0.74750566
-0.07522057 0.20966767 0.74842936
-0.062852398 0.20976651 0.74775249
-0.053896599 0.209501 0.74664801
-0.044552758 0.2089072 0.74748337
-0.036917597 0.208553 0.74402177
0.19509466 0.20336668 0.74514228
0.2181775 0.202766 0.74275053
0.224916 0.20163365 0.74604112
0.23373634 0.20118134 0.74439138
-0.090032302 0.21270899 0.74233001
-0.084133953 0.21044725 0.74460727
-0.074243627 0.21030265 0.74442738
-0.063888401 0.21032667 0.74301893
-0.056906797 0.2102955 0.74102998
-0.046232473 0.21009099 0.74149895
0.24353699 0.21099301 0.74133497
0.028703099 0.169043 0.75790799
0.035496701 0.165491 0.75699002
0.046835002 0.16792101 0.75573301
0.047247201 0.174595 0.75303447
0.10486799 0.1733195 0.7544145
0.110436 0.173466 0.75109601
0.15599 0.1794945 0.75889945
0.16612351 0.1791065 0.75838399
0.174597 0.177403 0.75400901
0.18677633 0.173474 0.75642937
0.19651276 0.177149 0.75208324
0.20167699 0.17793401 0.75479501
-0.023661949 0.1889995 0.7566185
-0.014204649 0.185792 0.75421548
-0.0070180949 0.183698 0.75595254
0.0052772686 0.1840854 0.75563204
0.014412832 0.18481733 0.75425166
0.025447728 0.18591702 0.75561482
0.03598915 0.18595549 0.75327301
0.136067 0.18356685 0.75448036
0.14513628 0.18247971 0.75301009
0.15688534 0.18123949 0.75384331
0.1630865 0.18123999 0.7516405
-0.0304265 0.195416 0.75320202
-0.0241111 0.197791 0.75615901
0.1975005 0.19882801 0.756001
0.22501187 0.19768149 0.75763506
0.23127902 0.19874167 0.75405627
-0.0907057 0.204904 0.75478798
-0.083853714 0.20735246 0.75493544
-0.074579291 0.20826516 0.75501913
-0.065225534 0.20874117 0.75482851
-0.055525042 0.20829399 0.7560488
-0.045726921 0.20769684 0.75473469
-0.03606135 0.20692825 0.75590754
0.19671001 0.20148265 0.7531473
0.200413 0.200413 0.75200099
0.21681 0.20491201 0.75400054
0.22409634 0.20147766 0.7546733
-0.071645297 0.210042 0.75296301
-0.045910198 0.210435 0.750696
-0.031728201 0.211522 0.75400102
-0.029084301 0.211522 0.75400102
0.035247099 0.174008 0.76245099
0.044133302 0.179904 0.76704597
0.110622 0.17723 0.76437998
0.13660499 0.179572 0.76712501
0.14633851 0.17902349 0.76619703
0.15563701 0.17854725 0.76549751
0.16506433 0.17866033 0.76531339
0.174371 0.17885201 0.769292
0.18760435 0.17367066 0.76080132
0.19235399 0.176717 0.761814
-0.016731033 0.18598999 0.76252967
-0.0044762483 0.1832165 0.76459855
0.0048651681 0.1835248 0.76450622
0.0162917 0.1846462 0.76355696
0.025845001 0.18456785 0.76540822
0.03658605 0.18525225 0.76339787
0.040621534 0.18478566 0.76523763
0.1293315 0.18352801 0.76558554
0.13439712 0.18282187 0.76424897
0.1431035 0.18020949 0.76204145
0.15360767 0.18096767 0.76364869
0.19251099 0.1978635 0.76250148
0.21996801 0.19936299 0.76025403
0.22507975 0.19502325 0.76319325
-0.084151357 0.20471168 0.7639069
-0.07622131 0.20569041 0.76414531
-0.065126777 0.20655167 0.76509666
-0.053786933 0.20654702 0.76487142
-0.045175496 0.20696972 0.76550472
-0.035620719 0.20680539 0.76551497
-0.02838715 0.204578 0.76641899
0.19322559 0.20286059 0.76320058
0.108784 0.17688499 0.771092
0.111455 0.17238501 0.77482599
0.127858 0.17955799 0.77510101
0.13364275 0.1785765 0.77593398
0.14462167 0.17741168 0.77742368
0.15612 0.1780085 0.77549899
0.164946 0.17690332 0.77819633
0.17531805 0.17594399 0.77702248
0.18298309 0.17576884 0.77379602
-0.021988699 0.18996701 0.77316099
-0.0051201717 0.1825345 0.77465379
0.0064954101 0.18193001 0.77329749
0.015155154 0.18342036 0.77375466
0.023678441 0.18389699 0.77358037
0.0350696 0.18260674 0.77500951
0.040559702 0.18249799 0.77804899
0.12861432 0.18402798 0.77245694
0.145834 0.180667 0.77019101
0.175969 0.182319 0.77600098
0.182319 0.182319 0.77600098
-0.082478702 0.19903401 0.77217799
-0.025813799 0.19070899 0.77652198
-0.090679303 0.20356099 0.77854598
-0.081938699 0.2036435 0.77537149
-0.075420484 0.20420499 0.77405298
-0.064723156 0.20460232 0.77514237
-0.055158529 0.20479651 0.77504253
-0.045324914 0.20415676 0.77572137
-0.036160838 0.2037888 0.77251226
-0.029617099 0.200231 0.77112699
0.046428852 0.162772 0.78862751
0.050544199 0.16201299 0.78725302
0.124226 0.165305 0.78995001
0.146823 0.169788 0.78789699
0.1539924 0.168667 0.7890234
0.16442251 0.16908351 0.78710049
0.170054 0.169955 0.78183901
0.017797001 0.1792305 0.78300107
0.02524342 0.1788024 0.78530103
0.033930525 0.17833029 0.78757346
0.046456344 0.1786416 0.78860122
0.109858 0.17061999 0.78580701
0.11481025 0.17507499 0.78450024
0.1251297 0.17774722 0.78674173
0.13422 0.17542143 0.78803253
0.14581658 0.17560758 0.78764701
0.15523958 0.17442712 0.78672105
0.16499862 0.17379147 0.78334314
0.1735485 0.17213762 0.78087151
-0.018229401 0.188223 0.78364801
-0.0052991132 0.18480067 0.78064364
0.0066458606 0.182741 0.78472644
0.025947466 0.18180366 0.78199863
0.033912767 0.18187965 0.78308171
0.04616718 0.18322919 0.7866556
0.118368 0.18167999 0.78500098
0.125486 0.183826 0.78024101
0.1380295 0.180351 0.78047097
0.16547951 0.18052299 0.78000152
-0.091146298 0.19865701 0.78152502
-0.083136439 0.1974124 0.78372979
-0.076472402 0.1998565 0.78585601
-0.031281199 0.195722 0.782956
-0.07541535 0.20242663 0.78351057
-0.06657771 0.20262423 0.78614169
-0.055429839 0.20367619 0.78360736
-0.04537417 0.20267934 0.78568363
-0.03535175 0.20262225 0.78563797
0.0237117 0.165382 0.79728597
0.1084715 0.16338401 0.79332978
0.11408751 0.16526848 0.79264724
0.12530725 0.16391125 0.79144949
0.13500281 0.1676877 0.79198658
0.14473088 0.16810988 0.79333991
0.15172119 0.1685866 0.79215378
0.02325185 0.1746175 0.7943325
0.1076885 0.17350599 0.79779398
0.1152853 0.17562421 0.7960856
0.12396424 0.17222138 0.79233485
0.13508609 0.17145529 0.79194123
0.144026 0.17209215 0.79160208
0.15967999 0.17010701 0.79137403
-0.0127235 0.187084 0.79325902
-0.080429599 0.19800401 0.791251
-0.07488858 0.19627419 0.79445171
-0.067345433 0.19668035 0.79744893
-0.055326447 0.1995945 0.79867351
-0.047478799 0.199714 0.79988003
-0.034761999 0.19774701 0.79245901
-0.025778901 0.193358 0.79479998
-0.070887499 0.20047501 0.79213703
-0.06451752 0.20105851 0.79363143
-0.055775732 0.201464 0.79273748
-0.046040498 0.20141873 0.79342455
-0.038973767 0.20144601 0.79695994
0.01669715 0.1682215 0.80574149
0.027861901 0.167412 0.80491197
0.0200876 0.17020001 0.80729002
0.105013 0.17494699 0.80060703
-0.059644502 0.189621 0.80735201
-0.0044105598 0.18577801 0.80778599
0.00102894 0.183696 0.80598903
-0.07264924 0.1951662 0.80382621
-0.065280616 0.19543022 0.80470192
-0.054988917 0.19849086 0.80566883
-0.045168187 0.19896716 0.80541927
-0.035944998 0.198577 0.80416995
-0.033302132 0.20375967 0.80316454
-0.028158501 0.205557 0.803002
-0.35818201 0.0185833 0.81811601
-0.36119899 0.0242342 0.81214201
-0.358327 0.0242253 0.81211901
0.0057267952 0.169406 0.81476402
0.0206363 0.16926201 0.81033802
0.0248283 0.17684101 0.81564802
-0.0089526298 0.188888 0.81589401
-0.064721815 0.19427399 0.81205302
-0.054961856 0.19430113 0.81630546
-0.046435367 0.19780068 0.81554228
-0.035931233 0.19763966 0.81373709
-0.0264598 0.19633101 0.81687564
-0.0174721 0.19227999 0.81622601
-0.36488599 0.0186383 0.82016802
0.00092731201 0.178868 0.82901102
-0.038141102 0.183217 0.82929897
0.0077301599 0.184817 0.82317895
-0.055610947 0.19150451 0.82861197
-0.046865836 0.19376267 0.82591742
-0.036163099 0.19734579 0.82442963
-0.0146219 0.19174901 0.82599401
-0.023256199 0.20058499 0.82900202
-0.047452901 0.18756001 0.835899
-0.0051153698 0.189742 0.83938998
0.0059190071 0.18926466 0.83591795
0.0145605 0.189393 0.839252
0.0337261 0.183194 0.83013499
-0.050387751 0.1936145 0.83039796
-0.044031184 0.19235706 0.83483481
-0.036013655 0.19399324 0.8348881
-0.0243675 0.1962585 0.83530223
-0.0146403 0.199108 0.83500201
-0.041868702 0.189152 0.84114897
-0.03296455 0.18583649 0.84958148
-0.02462225 0.18456401 0.84686327
-0.0133972 0.1830955 0.84900045
-0.00024814499 0.18731301 0.84025002
0.0108297 0.185251 0.84374899
0.021098001 0.18986 0.84660101
-0.040817648 0.1916935 0.841241
-0.032226462 0.19219525 0.84468943
-0.026253462 0.19279812 0.84740704
-0.0150811 0.19351549 0.84710896
-0.042097501 0.18482 0.851987
-0.036247734 0.18630934 0.85302901
-0.0277416 0.1882365 0.85358751
-0.01652476 0.18868501 0.85550594
-0.0063292817 0.18661201 0.85461777
0.0026654699 0.18816701 0.85870302
-0.023851866 0.19189399 0.85294795
-0.014284574 0.1938035 0.8537606
-0.0059850775 0.19403625 0.8578245
-0.018406266 0.18593466 0.86478168
-0.0060287425 0.18481399 0.86683547
0.0035543144 0.18717922 0.86469543
-0.00167602 0.19430301 0.86007297
0.0051235901 0.190872 0.86549848
-0.0214485 0.187354 0.87603998
-0.0013628881 0.18491749 0.87017703
0.0074899774 0.18490025 0.87474728
0.01492205 0.1868905 0.87313443
0.026041968 0.18703182 0.87644178
0.014017765 0.19308598 0.87100035
0.020552101 0.190933 0.87219602
0.0180171 0.18620351 0.88170248
0.026896134 0.18827333 0.88500136
0.034137402 0.18827333 0.88500136
0.040344201 0.189308 0.885001
0.017512301 0.19367068 0.8813343
0.02499463 0.19387928 0.88299644
0.033214796 0.19329965 0.8851912
0.040344201 0.19241101 0.88500202
0.031798299 0.186271 0.89117301
-0.28127497 0.033553999 0.90778553
-0.27815199 0.033532701 0.90770149
-0.28604999 0.025897101 0.913019
-0.28848299 0.035269402 0.9109565
-0.272834 0.032028198 0.91058099
